{
  "DevID": "61368966705512450",
  "SevLevel": 0,
  "Description": "In servizio",
  "Offline": 0,
  "AckFlag": false,
  "AckDate": null,
  "ShouldSendNotificationByEmail": 0,
  "streams": [
    {
      "StrID": 1,
      "Name": "Informazioni standard",
      "Visible": 1,
      "Data": null,
      "DateTime": "2018-06-26T15:34:18.537Z",
      "SevLevel": 0,
      "Description": "Nome macchina ricevuto=0;Descrizione ricevuta=0;Up Time ricevuto=0;Contatto di riferimento ricevuto=0;Locazione ricevuta=0",
      "Processed": null
    },
    {
      "StrID": 2,
      "Name": "Informazioni generali",
      "Visible": 1,
      "Data": null,
      "DateTime": "2018-06-26T15:34:19.417Z",
      "SevLevel": 0,
      "Description": "Valore ricevuto=0;Valore ricevuto=0;Valore ricevuto=0;Valore ricevuto=0;Valore ricevuto=0;Monitor LCD/TFT 32 pollici=0;Valore ricevuto=0;Valore ricevuto=0;Valore ricevuto=0",
      "Processed": null
    },
    {
      "StrID": 3,
      "Name": "Informazioni di rete",
      "Visible": 1,
      "Data": null,
      "DateTime": "2018-06-26T15:34:20.380Z",
      "SevLevel": 0,
      "Description": "Valore ricevuto=0;Valore ricevuto=0;Valore ricevuto=0;Valore ricevuto=0;Valore ricevuto=0;Valore ricevuto=0;Valore ricevuto=0;Valore ricevuto=0;Valore ricevuto=0;Valore ricevuto=0",
      "Processed": null
    },
    {
      "StrID": 4,
      "Name": "Informazioni sistema",
      "Visible": 1,
      "Data": null,
      "DateTime": "2018-06-26T15:34:21.940Z",
      "SevLevel": 0,
      "Description": "Valore ricevuto=0;Valore ricevuto=0;Valore ricevuto=0",
      "Processed": null
    },
    {
      "StrID": 5,
      "Name": "Informazioni sulla connessione",
      "Visible": 1,
      "Data": null,
      "DateTime": "2018-06-26T15:34:22.170Z",
      "SevLevel": 0,
      "Description": "In esecuzione e connesso=0;Valore entro i limiti normali=0;Valore entro i limiti normali=0;Nessun allarme=0",
      "Processed": null
    },
    {
      "StrID": 6,
      "Name": "Informazioni ambientali - Temperatura",
      "Visible": 1,
      "Data": null,
      "DateTime": "2018-06-26T15:34:22.843Z",
      "SevLevel": 0,
      "Description": "Valore ricevuto=0;Valore ricevuto=0;Installato=0;Valore ricevuto=0;Nessun allarme=0",
      "Processed": null
    },
    {
      "StrID": 7,
      "Name": "Informazioni ambientali - Umidità",
      "Visible": 1,
      "Data": null,
      "DateTime": "2018-06-26T15:34:23.473Z",
      "SevLevel": 0,
      "Description": "Valore ricevuto=0",
      "Processed": null
    },
    {
      "StrID": 8,
      "Name": "Informazioni ambientali - Riscaldatori",
      "Visible": 1,
      "Data": null,
      "DateTime": "2018-06-26T15:34:23.573Z",
      "SevLevel": 0,
      "Description": "Valore ricevuto=0",
      "Processed": null
    },
    {
      "StrID": 9,
      "Name": "Informazioni ambientali - Ventole",
      "Visible": 1,
      "Data": null,
      "DateTime": "2018-06-26T15:34:23.803Z",
      "SevLevel": 0,
      "Description": "Valore ricevuto=0;Valore ricevuto=0;Valore ricevuto=0;In funzione=0;Valore ricevuto=0;Nessun allarme=0;Valore ricevuto=0;Valore ricevuto=0;In funzione=0;Valore ricevuto=0;Nessun allarme=0;Valore ricevuto=0;Valore ricevuto=0;In funzione=0;Valore ricevuto=0;Nessun allarme=0",
      "Processed": null
    },
    {
      "StrID": 10,
      "Name": "Informazioni ambientali - Sensori di luminosità",
      "Visible": 1,
      "Data": null,
      "DateTime": "2018-06-26T15:34:24.977Z",
      "SevLevel": 0,
      "Description": "Valore ricevuto=0;Valore ricevuto=0;Installato=0;Valore ricevuto=0;Nessun allarme=0",
      "Processed": null
    },
    {
      "StrID": 11,
      "Name": "Stato del display",
      "Visible": 1,
      "Data": null,
      "DateTime": "2018-06-26T15:34:25.327Z",
      "SevLevel": 0,
      "Description": "Acceso=0;Nessun guasto=0;Nessun allarme=0",
      "Processed": null
    },
    {
      "StrID": 12,
      "Name": "Stato dei LED",
      "Visible": 1,
      "Data": null,
      "DateTime": "2018-06-26T15:34:25.537Z",
      "SevLevel": 255,
      "Description": "Valore ricevuto=0;Valore ricevuto=0;Indeterminato=0",
      "Processed": null
    },
    {
      "StrID": 13,
      "Name": "Stato lampade per retroilluminazione",
      "Visible": 1,
      "Data": null,
      "DateTime": "2018-06-26T15:34:25.837Z",
      "SevLevel": 0,
      "Description": "Valore ricevuto=0;Accesa=0;Valore ricevuto=0;Nessun allarme=0",
      "Processed": null
    },
    {
      "StrID": 14,
      "Name": "Stato alimentatori",
      "Visible": 1,
      "Data": null,
      "DateTime": "2018-06-26T15:34:26.277Z",
      "SevLevel": 0,
      "Description": "Valore ricevuto=0;p5V=0;Acceso=0;Valore ricevuto=0;Valore ricevuto=0;Nessun allarme=0;p24V=0;Acceso=0;Valore ricevuto=0;Valore ricevuto=0;Nessun allarme=0",
      "Processed": null
    }
  ],
  "stream_fields": [
    {
      "StrID": 1,
      "FieldID": 0,
      "ArrayID": 0,
      "Name": "Nome macchina",
      "SevLevel": 0,
      "Value": "TSF001",
      "Description": "Nome macchina ricevuto=0",
      "Visible": 1,
      "ReferenceID": null,
      "AckFlag": false,
      "AckDate": null,
      "IsTable": 0,
      "ShouldSendNotificationByEmail": 0
    },
    {
      "StrID": 1,
      "FieldID": 1,
      "ArrayID": 0,
      "Name": "Descrizione sistema",
      "SevLevel": 0,
      "Value": "GTx - GTx-ADP",
      "Description": "Descrizione ricevuta=0",
      "Visible": 1,
      "ReferenceID": null,
      "AckFlag": false,
      "AckDate": null,
      "IsTable": 0,
      "ShouldSendNotificationByEmail": 0
    },
    {
      "StrID": 1,
      "FieldID": 2,
      "ArrayID": 0,
      "Name": "Up time",
      "SevLevel": 0,
      "Value": "0 giorni, 12:50:03.090",
      "Description": "Up Time ricevuto=0",
      "Visible": 1,
      "ReferenceID": null,
      "AckFlag": false,
      "AckDate": null,
      "IsTable": 0,
      "ShouldSendNotificationByEmail": 0
    },
    {
      "StrID": 1,
      "FieldID": 3,
      "ArrayID": 0,
      "Name": "Contatto di riferimento",
      "SevLevel": 0,
      "Value": "root",
      "Description": "Contatto di riferimento ricevuto=0",
      "Visible": 1,
      "ReferenceID": null,
      "AckFlag": false,
      "AckDate": null,
      "IsTable": 0,
      "ShouldSendNotificationByEmail": 0
    },
    {
      "StrID": 1,
      "FieldID": 4,
      "ArrayID": 0,
      "Name": "Locazione",
      "SevLevel": 0,
      "Value": "Unknown",
      "Description": "Locazione ricevuta=0",
      "Visible": 1,
      "ReferenceID": null,
      "AckFlag": false,
      "AckDate": null,
      "IsTable": 0,
      "ShouldSendNotificationByEmail": 0
    },
    {
      "StrID": 2,
      "FieldID": 0,
      "ArrayID": 0,
      "Name": "Nome del costruttore",
      "SevLevel": 0,
      "Value": "Solari di Udine",
      "Description": "Valore ricevuto=0",
      "Visible": 1,
      "ReferenceID": null,
      "AckFlag": false,
      "AckDate": null,
      "IsTable": 0,
      "ShouldSendNotificationByEmail": 0
    },
    {
      "StrID": 2,
      "FieldID": 1,
      "ArrayID": 0,
      "Name": "Sigla del modello",
      "SevLevel": 0,
      "Value": "814F04M1",
      "Description": "Valore ricevuto=0",
      "Visible": 1,
      "ReferenceID": null,
      "AckFlag": false,
      "AckDate": null,
      "IsTable": 0,
      "ShouldSendNotificationByEmail": 0
    },
    {
      "StrID": 2,
      "FieldID": 2,
      "ArrayID": 0,
      "Name": "Numero seriale",
      "SevLevel": 0,
      "Value": "814F04M1-01",
      "Description": "Valore ricevuto=0",
      "Visible": 1,
      "ReferenceID": null,
      "AckFlag": false,
      "AckDate": null,
      "IsTable": 0,
      "ShouldSendNotificationByEmail": 0
    },
    {
      "StrID": 2,
      "FieldID": 3,
      "ArrayID": 0,
      "Name": "Versione software",
      "SevLevel": 0,
      "Value": "v. 1.0.2",
      "Description": "Valore ricevuto=0",
      "Visible": 1,
      "ReferenceID": null,
      "AckFlag": false,
      "AckDate": null,
      "IsTable": 0,
      "ShouldSendNotificationByEmail": 0
    },
    {
      "StrID": 2,
      "FieldID": 4,
      "ArrayID": 0,
      "Name": "Versione firmware",
      "SevLevel": 0,
      "Value": "3.2.0-69-generic",
      "Description": "Valore ricevuto=0",
      "Visible": 1,
      "ReferenceID": null,
      "AckFlag": false,
      "AckDate": null,
      "IsTable": 0,
      "ShouldSendNotificationByEmail": 0
    },
    {
      "StrID": 2,
      "FieldID": 5,
      "ArrayID": 0,
      "Name": "Categoria",
      "SevLevel": 0,
      "Value": "0",
      "Description": "Monitor LCD/TFT 32 pollici=0",
      "Visible": 1,
      "ReferenceID": null,
      "AckFlag": false,
      "AckDate": null,
      "IsTable": 0,
      "ShouldSendNotificationByEmail": 0
    },
    {
      "StrID": 2,
      "FieldID": 6,
      "ArrayID": 0,
      "Name": "Locazione dispositivo",
      "SevLevel": 0,
      "Value": "Atrio",
      "Description": "Valore ricevuto=0",
      "Visible": 1,
      "ReferenceID": null,
      "AckFlag": false,
      "AckDate": null,
      "IsTable": 0,
      "ShouldSendNotificationByEmail": 0
    },
    {
      "StrID": 2,
      "FieldID": 7,
      "ArrayID": 0,
      "Name": "Id dispositivo",
      "SevLevel": 0,
      "Value": "M01TB89T1728M",
      "Description": "Valore ricevuto=0",
      "Visible": 1,
      "ReferenceID": null,
      "AckFlag": false,
      "AckDate": null,
      "IsTable": 0,
      "ShouldSendNotificationByEmail": 0
    },
    {
      "StrID": 2,
      "FieldID": 8,
      "ArrayID": 0,
      "Name": "Informazioni aggiuntive",
      "SevLevel": 255,
      "Value": "n/d",
      "Description": "Valore non ricevuto",
      "Visible": 1,
      "ReferenceID": null,
      "AckFlag": false,
      "AckDate": null,
      "IsTable": 0,
      "ShouldSendNotificationByEmail": 0
    },
    {
      "StrID": 2,
      "FieldID": 9,
      "ArrayID": 0,
      "Name": "Versione MIB",
      "SevLevel": 0,
      "Value": "Version: 1.0, Build 09:34, 23/09/2009",
      "Description": "Valore ricevuto=0",
      "Visible": 1,
      "ReferenceID": null,
      "AckFlag": false,
      "AckDate": null,
      "IsTable": 0,
      "ShouldSendNotificationByEmail": 0
    },
    {
      "StrID": 3,
      "FieldID": 0,
      "ArrayID": 0,
      "Name": "Nome host dell'apparato",
      "SevLevel": 0,
      "Value": "TSF001",
      "Description": "Valore ricevuto=0",
      "Visible": 1,
      "ReferenceID": null,
      "AckFlag": false,
      "AckDate": null,
      "IsTable": 0,
      "ShouldSendNotificationByEmail": 0
    },
    {
      "StrID": 3,
      "FieldID": 1,
      "ArrayID": 0,
      "Name": "Numero di interfacce di rete",
      "SevLevel": 0,
      "Value": "1",
      "Description": "Valore ricevuto=0",
      "Visible": 1,
      "ReferenceID": null,
      "AckFlag": false,
      "AckDate": null,
      "IsTable": 0,
      "ShouldSendNotificationByEmail": 0
    },
    {
      "StrID": 3,
      "FieldID": 2,
      "ArrayID": 0,
      "Name": "Descrizione interfaccia di rete #1",
      "SevLevel": 0,
      "Value": "Main Network Interface",
      "Description": "Valore ricevuto=0",
      "Visible": 1,
      "ReferenceID": null,
      "AckFlag": false,
      "AckDate": null,
      "IsTable": 0,
      "ShouldSendNotificationByEmail": 0
    },
    {
      "StrID": 3,
      "FieldID": 3,
      "ArrayID": 0,
      "Name": "MAC Address interfaccia di rete #1",
      "SevLevel": 0,
      "Value": "00-0B-AB-84-18-CB",
      "Description": "Valore ricevuto=0",
      "Visible": 1,
      "ReferenceID": null,
      "AckFlag": false,
      "AckDate": null,
      "IsTable": 0,
      "ShouldSendNotificationByEmail": 0
    },
    {
      "StrID": 3,
      "FieldID": 4,
      "ArrayID": 0,
      "Name": "Indirizzo IP interfaccia di rete #1",
      "SevLevel": 0,
      "Value": "10.102.222.112",
      "Description": "Valore ricevuto=0",
      "Visible": 1,
      "ReferenceID": null,
      "AckFlag": false,
      "AckDate": null,
      "IsTable": 0,
      "ShouldSendNotificationByEmail": 0
    },
    {
      "StrID": 3,
      "FieldID": 5,
      "ArrayID": 0,
      "Name": "Maschera di rete interfaccia di rete #1",
      "SevLevel": 0,
      "Value": "255.255.254.0",
      "Description": "Valore ricevuto=0",
      "Visible": 1,
      "ReferenceID": null,
      "AckFlag": false,
      "AckDate": null,
      "IsTable": 0,
      "ShouldSendNotificationByEmail": 0
    },
    {
      "StrID": 3,
      "FieldID": 6,
      "ArrayID": 0,
      "Name": "Gateway interfaccia di rete #1",
      "SevLevel": 0,
      "Value": "10.102.223.201",
      "Description": "Valore ricevuto=0",
      "Visible": 1,
      "ReferenceID": null,
      "AckFlag": false,
      "AckDate": null,
      "IsTable": 0,
      "ShouldSendNotificationByEmail": 0
    },
    {
      "StrID": 3,
      "FieldID": 7,
      "ArrayID": 0,
      "Name": "DNS primario interfaccia di rete #1",
      "SevLevel": 0,
      "Value": "0.0.0.0",
      "Description": "Valore ricevuto=0",
      "Visible": 1,
      "ReferenceID": null,
      "AckFlag": false,
      "AckDate": null,
      "IsTable": 0,
      "ShouldSendNotificationByEmail": 0
    },
    {
      "StrID": 3,
      "FieldID": 8,
      "ArrayID": 0,
      "Name": "DNS secondario interfaccia di rete #1",
      "SevLevel": 0,
      "Value": "0.0.0.0",
      "Description": "Valore ricevuto=0",
      "Visible": 1,
      "ReferenceID": null,
      "AckFlag": false,
      "AckDate": null,
      "IsTable": 0,
      "ShouldSendNotificationByEmail": 0
    },
    {
      "StrID": 3,
      "FieldID": 9,
      "ArrayID": 0,
      "Name": "MTU interfaccia di rete #1",
      "SevLevel": 0,
      "Value": "1500",
      "Description": "Valore ricevuto=0",
      "Visible": 1,
      "ReferenceID": null,
      "AckFlag": false,
      "AckDate": null,
      "IsTable": 0,
      "ShouldSendNotificationByEmail": 0
    },
    {
      "StrID": 4,
      "FieldID": 0,
      "ArrayID": 0,
      "Name": "Data e ora del sistema",
      "SevLevel": 0,
      "Value": "26/06/2018 15:34:09",
      "Description": "Valore ricevuto=0",
      "Visible": 1,
      "ReferenceID": null,
      "AckFlag": false,
      "AckDate": null,
      "IsTable": 0,
      "ShouldSendNotificationByEmail": 0
    },
    {
      "StrID": 4,
      "FieldID": 1,
      "ArrayID": 0,
      "Name": "Data e ora ultimo riavvio del sistema",
      "SevLevel": 0,
      "Value": "26/06/2018 02:44:06",
      "Description": "Valore ricevuto=0",
      "Visible": 1,
      "ReferenceID": null,
      "AckFlag": false,
      "AckDate": null,
      "IsTable": 0,
      "ShouldSendNotificationByEmail": 0
    },
    {
      "StrID": 4,
      "FieldID": 2,
      "ArrayID": 0,
      "Name": "Numero di riavvii del sistema",
      "SevLevel": 0,
      "Value": "81",
      "Description": "Valore ricevuto=0",
      "Visible": 1,
      "ReferenceID": null,
      "AckFlag": false,
      "AckDate": null,
      "IsTable": 0,
      "ShouldSendNotificationByEmail": 0
    },
    {
      "StrID": 5,
      "FieldID": 0,
      "ArrayID": 0,
      "Name": "Stato della connessione",
      "SevLevel": 0,
      "Value": "1",
      "Description": "In esecuzione e connesso=0",
      "Visible": 1,
      "ReferenceID": null,
      "AckFlag": false,
      "AckDate": null,
      "IsTable": 0,
      "ShouldSendNotificationByEmail": 0
    },
    {
      "StrID": 5,
      "FieldID": 1,
      "ArrayID": 0,
      "Name": "Tempo medio di risposta del web service SELECT msec)",
      "SevLevel": 0,
      "Value": "0 giorni, 00:00:00.020",
      "Description": "Valore entro i limiti normali=0",
      "Visible": 1,
      "ReferenceID": null,
      "AckFlag": false,
      "AckDate": null,
      "IsTable": 0,
      "ShouldSendNotificationByEmail": 0
    },
    {
      "StrID": 5,
      "FieldID": 2,
      "ArrayID": 0,
      "Name": "Tempo di risposta all'ultima chiamata del web service SELECT msec)",
      "SevLevel": 0,
      "Value": "0 giorni, 00:00:00.030",
      "Description": "Valore entro i limiti normali=0",
      "Visible": 1,
      "ReferenceID": null,
      "AckFlag": false,
      "AckDate": null,
      "IsTable": 0,
      "ShouldSendNotificationByEmail": 0
    },
    {
      "StrID": 5,
      "FieldID": 3,
      "ArrayID": 0,
      "Name": "Severità complessiva relativa alla connessione",
      "SevLevel": 0,
      "Value": "0",
      "Description": "Nessun allarme=0",
      "Visible": 1,
      "ReferenceID": null,
      "AckFlag": false,
      "AckDate": null,
      "IsTable": 0,
      "ShouldSendNotificationByEmail": 0
    },
    {
      "StrID": 6,
      "FieldID": 0,
      "ArrayID": 0,
      "Name": "Numero di sensori di temperatura installati",
      "SevLevel": 0,
      "Value": "1",
      "Description": "Valore ricevuto=0",
      "Visible": 1,
      "ReferenceID": null,
      "AckFlag": false,
      "AckDate": null,
      "IsTable": 0,
      "ShouldSendNotificationByEmail": 0
    },
    {
      "StrID": 6,
      "FieldID": 1,
      "ArrayID": 0,
      "Name": "Temperatura del sensore #1 SELECT °C)",
      "SevLevel": 0,
      "Value": "31",
      "Description": "Valore ricevuto=0",
      "Visible": 1,
      "ReferenceID": null,
      "AckFlag": false,
      "AckDate": null,
      "IsTable": 0,
      "ShouldSendNotificationByEmail": 0
    },
    {
      "StrID": 6,
      "FieldID": 2,
      "ArrayID": 0,
      "Name": "Stato del sensore #1",
      "SevLevel": 0,
      "Value": "2",
      "Description": "Installato=0",
      "Visible": 1,
      "ReferenceID": null,
      "AckFlag": false,
      "AckDate": null,
      "IsTable": 0,
      "ShouldSendNotificationByEmail": 0
    },
    {
      "StrID": 6,
      "FieldID": 3,
      "ArrayID": 0,
      "Name": "Descrizione del sensore #1",
      "SevLevel": 0,
      "Value": "Main Temperature Sensor",
      "Description": "Valore ricevuto=0",
      "Visible": 1,
      "ReferenceID": null,
      "AckFlag": false,
      "AckDate": null,
      "IsTable": 0,
      "ShouldSendNotificationByEmail": 0
    },
    {
      "StrID": 6,
      "FieldID": 4,
      "ArrayID": 0,
      "Name": "Severità complessiva relativa al sensore #1",
      "SevLevel": 0,
      "Value": "0",
      "Description": "Nessun allarme=0",
      "Visible": 1,
      "ReferenceID": null,
      "AckFlag": false,
      "AckDate": null,
      "IsTable": 0,
      "ShouldSendNotificationByEmail": 0
    },
    {
      "StrID": 7,
      "FieldID": 0,
      "ArrayID": 0,
      "Name": "Numero di sensori di umidità installati",
      "SevLevel": 0,
      "Value": "0",
      "Description": "Valore ricevuto=0",
      "Visible": 1,
      "ReferenceID": null,
      "AckFlag": false,
      "AckDate": null,
      "IsTable": 0,
      "ShouldSendNotificationByEmail": 0
    },
    {
      "StrID": 8,
      "FieldID": 0,
      "ArrayID": 0,
      "Name": "Numero di riscaldatori installati",
      "SevLevel": 0,
      "Value": "0",
      "Description": "Valore ricevuto=0",
      "Visible": 1,
      "ReferenceID": null,
      "AckFlag": false,
      "AckDate": null,
      "IsTable": 0,
      "ShouldSendNotificationByEmail": 0
    },
    {
      "StrID": 9,
      "FieldID": 0,
      "ArrayID": 0,
      "Name": "Numero di ventole installate",
      "SevLevel": 0,
      "Value": "3",
      "Description": "Valore ricevuto=0",
      "Visible": 1,
      "ReferenceID": null,
      "AckFlag": false,
      "AckDate": null,
      "IsTable": 0,
      "ShouldSendNotificationByEmail": 0
    },
    {
      "StrID": 9,
      "FieldID": 1,
      "ArrayID": 0,
      "Name": "Tipo ventola #1",
      "SevLevel": 0,
      "Value": "Top",
      "Description": "Valore ricevuto=0",
      "Visible": 1,
      "ReferenceID": null,
      "AckFlag": false,
      "AckDate": null,
      "IsTable": 0,
      "ShouldSendNotificationByEmail": 0
    },
    {
      "StrID": 9,
      "FieldID": 2,
      "ArrayID": 0,
      "Name": "Velocità della ventola SELECT %) #1",
      "SevLevel": 0,
      "Value": "100",
      "Description": "Valore ricevuto=0",
      "Visible": 1,
      "ReferenceID": null,
      "AckFlag": false,
      "AckDate": null,
      "IsTable": 0,
      "ShouldSendNotificationByEmail": 0
    },
    {
      "StrID": 9,
      "FieldID": 3,
      "ArrayID": 0,
      "Name": "Stato della ventola #1",
      "SevLevel": 0,
      "Value": "1",
      "Description": "In funzione=0",
      "Visible": 1,
      "ReferenceID": null,
      "AckFlag": false,
      "AckDate": null,
      "IsTable": 0,
      "ShouldSendNotificationByEmail": 0
    },
    {
      "StrID": 9,
      "FieldID": 4,
      "ArrayID": 0,
      "Name": "Descrizione della ventola #1",
      "SevLevel": 0,
      "Value": "FAN",
      "Description": "Valore ricevuto=0",
      "Visible": 1,
      "ReferenceID": null,
      "AckFlag": false,
      "AckDate": null,
      "IsTable": 0,
      "ShouldSendNotificationByEmail": 0
    },
    {
      "StrID": 9,
      "FieldID": 5,
      "ArrayID": 0,
      "Name": "Severità complessiva della ventola #1",
      "SevLevel": 0,
      "Value": "0",
      "Description": "Nessun allarme=0",
      "Visible": 1,
      "ReferenceID": null,
      "AckFlag": false,
      "AckDate": null,
      "IsTable": 0,
      "ShouldSendNotificationByEmail": 0
    },
    {
      "StrID": 9,
      "FieldID": 6,
      "ArrayID": 0,
      "Name": "Tipo ventola #2",
      "SevLevel": 0,
      "Value": "Middle",
      "Description": "Valore ricevuto=0",
      "Visible": 1,
      "ReferenceID": null,
      "AckFlag": false,
      "AckDate": null,
      "IsTable": 0,
      "ShouldSendNotificationByEmail": 0
    },
    {
      "StrID": 9,
      "FieldID": 7,
      "ArrayID": 0,
      "Name": "Velocità della ventola SELECT %) #2",
      "SevLevel": 0,
      "Value": "100",
      "Description": "Valore ricevuto=0",
      "Visible": 1,
      "ReferenceID": null,
      "AckFlag": false,
      "AckDate": null,
      "IsTable": 0,
      "ShouldSendNotificationByEmail": 0
    },
    {
      "StrID": 9,
      "FieldID": 8,
      "ArrayID": 0,
      "Name": "Stato della ventola #2",
      "SevLevel": 0,
      "Value": "1",
      "Description": "In funzione=0",
      "Visible": 1,
      "ReferenceID": null,
      "AckFlag": false,
      "AckDate": null,
      "IsTable": 0,
      "ShouldSendNotificationByEmail": 0
    },
    {
      "StrID": 9,
      "FieldID": 9,
      "ArrayID": 0,
      "Name": "Descrizione della ventola #2",
      "SevLevel": 0,
      "Value": "FAN ",
      "Description": "Valore ricevuto=0",
      "Visible": 1,
      "ReferenceID": null,
      "AckFlag": false,
      "AckDate": null,
      "IsTable": 0,
      "ShouldSendNotificationByEmail": 0
    },
    {
      "StrID": 9,
      "FieldID": 10,
      "ArrayID": 0,
      "Name": "Severità complessiva della ventola #2",
      "SevLevel": 0,
      "Value": "0",
      "Description": "Nessun allarme=0",
      "Visible": 1,
      "ReferenceID": null,
      "AckFlag": false,
      "AckDate": null,
      "IsTable": 0,
      "ShouldSendNotificationByEmail": 0
    },
    {
      "StrID": 9,
      "FieldID": 11,
      "ArrayID": 0,
      "Name": "Tipo ventola #3",
      "SevLevel": 0,
      "Value": "Bottom",
      "Description": "Valore ricevuto=0",
      "Visible": 1,
      "ReferenceID": null,
      "AckFlag": false,
      "AckDate": null,
      "IsTable": 0,
      "ShouldSendNotificationByEmail": 0
    },
    {
      "StrID": 9,
      "FieldID": 12,
      "ArrayID": 0,
      "Name": "Velocità della ventola SELECT %) #3",
      "SevLevel": 0,
      "Value": "100",
      "Description": "Valore ricevuto=0",
      "Visible": 1,
      "ReferenceID": null,
      "AckFlag": false,
      "AckDate": null,
      "IsTable": 0,
      "ShouldSendNotificationByEmail": 0
    },
    {
      "StrID": 9,
      "FieldID": 13,
      "ArrayID": 0,
      "Name": "Stato della ventola #3",
      "SevLevel": 0,
      "Value": "1",
      "Description": "In funzione=0",
      "Visible": 1,
      "ReferenceID": null,
      "AckFlag": false,
      "AckDate": null,
      "IsTable": 0,
      "ShouldSendNotificationByEmail": 0
    },
    {
      "StrID": 9,
      "FieldID": 14,
      "ArrayID": 0,
      "Name": "Descrizione della ventola #3",
      "SevLevel": 0,
      "Value": "FAN",
      "Description": "Valore ricevuto=0",
      "Visible": 1,
      "ReferenceID": null,
      "AckFlag": false,
      "AckDate": null,
      "IsTable": 0,
      "ShouldSendNotificationByEmail": 0
    },
    {
      "StrID": 9,
      "FieldID": 15,
      "ArrayID": 0,
      "Name": "Severità complessiva della ventola #3",
      "SevLevel": 0,
      "Value": "0",
      "Description": "Nessun allarme=0",
      "Visible": 1,
      "ReferenceID": null,
      "AckFlag": false,
      "AckDate": null,
      "IsTable": 0,
      "ShouldSendNotificationByEmail": 0
    },
    {
      "StrID": 10,
      "FieldID": 0,
      "ArrayID": 0,
      "Name": "Numero di sensori di luminosità installati",
      "SevLevel": 0,
      "Value": "1",
      "Description": "Valore ricevuto=0",
      "Visible": 1,
      "ReferenceID": null,
      "AckFlag": false,
      "AckDate": null,
      "IsTable": 0,
      "ShouldSendNotificationByEmail": 0
    },
    {
      "StrID": 10,
      "FieldID": 1,
      "ArrayID": 0,
      "Name": "Luminosità rilevata dal sensore SELECT %) #1",
      "SevLevel": 0,
      "Value": "152",
      "Description": "Valore ricevuto=0",
      "Visible": 1,
      "ReferenceID": null,
      "AckFlag": false,
      "AckDate": null,
      "IsTable": 0,
      "ShouldSendNotificationByEmail": 0
    },
    {
      "StrID": 10,
      "FieldID": 2,
      "ArrayID": 0,
      "Name": "Stato del sensore #1",
      "SevLevel": 0,
      "Value": "2",
      "Description": "Installato=0",
      "Visible": 1,
      "ReferenceID": null,
      "AckFlag": false,
      "AckDate": null,
      "IsTable": 0,
      "ShouldSendNotificationByEmail": 0
    },
    {
      "StrID": 10,
      "FieldID": 3,
      "ArrayID": 0,
      "Name": "Descrizione del sensore #1",
      "SevLevel": 0,
      "Value": "Environment Light Sensor",
      "Description": "Valore ricevuto=0",
      "Visible": 1,
      "ReferenceID": null,
      "AckFlag": false,
      "AckDate": null,
      "IsTable": 0,
      "ShouldSendNotificationByEmail": 0
    },
    {
      "StrID": 10,
      "FieldID": 4,
      "ArrayID": 0,
      "Name": "Severità complessiva relativa al sensore #1",
      "SevLevel": 0,
      "Value": "0",
      "Description": "Nessun allarme=0",
      "Visible": 1,
      "ReferenceID": null,
      "AckFlag": false,
      "AckDate": null,
      "IsTable": 0,
      "ShouldSendNotificationByEmail": 0
    },
    {
      "StrID": 11,
      "FieldID": 0,
      "ArrayID": 0,
      "Name": "Stato di accensione del display SELECT pilotato dalla CPU)",
      "SevLevel": 0,
      "Value": "1",
      "Description": "Acceso=0",
      "Visible": 1,
      "ReferenceID": null,
      "AckFlag": false,
      "AckDate": null,
      "IsTable": 0,
      "ShouldSendNotificationByEmail": 0
    },
    {
      "StrID": 11,
      "FieldID": 1,
      "ArrayID": 0,
      "Name": "Causa del guasto",
      "SevLevel": 0,
      "Value": "1",
      "Description": "Nessun guasto=0",
      "Visible": 1,
      "ReferenceID": null,
      "AckFlag": false,
      "AckDate": null,
      "IsTable": 0,
      "ShouldSendNotificationByEmail": 0
    },
    {
      "StrID": 11,
      "FieldID": 2,
      "ArrayID": 0,
      "Name": "Severità complessiva relativa al display",
      "SevLevel": 0,
      "Value": "0",
      "Description": "Nessun allarme=0",
      "Visible": 1,
      "ReferenceID": null,
      "AckFlag": false,
      "AckDate": null,
      "IsTable": 0,
      "ShouldSendNotificationByEmail": 0
    },
    {
      "StrID": 12,
      "FieldID": 0,
      "ArrayID": 0,
      "Name": "Percentuale di LED guasti",
      "SevLevel": 0,
      "Value": "-1",
      "Description": "Valore ricevuto=0",
      "Visible": 1,
      "ReferenceID": null,
      "AckFlag": false,
      "AckDate": null,
      "IsTable": 0,
      "ShouldSendNotificationByEmail": 0
    },
    {
      "StrID": 12,
      "FieldID": 1,
      "ArrayID": 0,
      "Name": "Soglia oltre cui il messaggio può non essere comprensibile SELECT %)",
      "SevLevel": 0,
      "Value": "-1",
      "Description": "Valore ricevuto=0",
      "Visible": 1,
      "ReferenceID": null,
      "AckFlag": false,
      "AckDate": null,
      "IsTable": 0,
      "ShouldSendNotificationByEmail": 0
    },
    {
      "StrID": 12,
      "FieldID": 2,
      "ArrayID": 0,
      "Name": "Severità complessiva relativa allo stato dei LED",
      "SevLevel": 0,
      "Value": "5",
      "Description": "Indeterminato=0",
      "Visible": 1,
      "ReferenceID": null,
      "AckFlag": false,
      "AckDate": null,
      "IsTable": 0,
      "ShouldSendNotificationByEmail": 0
    },
    {
      "StrID": 13,
      "FieldID": 0,
      "ArrayID": 0,
      "Name": "Numero di lampade per retroilluminazione installate",
      "SevLevel": 0,
      "Value": "1",
      "Description": "Valore ricevuto=0",
      "Visible": 1,
      "ReferenceID": null,
      "AckFlag": false,
      "AckDate": null,
      "IsTable": 0,
      "ShouldSendNotificationByEmail": 0
    },
    {
      "StrID": 13,
      "FieldID": 1,
      "ArrayID": 0,
      "Name": "Stato lampada per retroilluminazione #1",
      "SevLevel": 0,
      "Value": "4",
      "Description": "Accesa=0",
      "Visible": 1,
      "ReferenceID": null,
      "AckFlag": false,
      "AckDate": null,
      "IsTable": 0,
      "ShouldSendNotificationByEmail": 0
    },
    {
      "StrID": 13,
      "FieldID": 2,
      "ArrayID": 0,
      "Name": "Descrizione della lampada per retroilluminazione #1",
      "SevLevel": 0,
      "Value": "Backlight Lamps",
      "Description": "Valore ricevuto=0",
      "Visible": 1,
      "ReferenceID": null,
      "AckFlag": false,
      "AckDate": null,
      "IsTable": 0,
      "ShouldSendNotificationByEmail": 0
    },
    {
      "StrID": 13,
      "FieldID": 3,
      "ArrayID": 0,
      "Name": "Severità complessiva della lampada per retroilluminazione #1",
      "SevLevel": 0,
      "Value": "0",
      "Description": "Nessun allarme=0",
      "Visible": 1,
      "ReferenceID": null,
      "AckFlag": false,
      "AckDate": null,
      "IsTable": 0,
      "ShouldSendNotificationByEmail": 0
    },
    {
      "StrID": 14,
      "FieldID": 0,
      "ArrayID": 0,
      "Name": "Numero di alimentatori installati",
      "SevLevel": 0,
      "Value": "2",
      "Description": "Valore ricevuto=0",
      "Visible": 1,
      "ReferenceID": null,
      "AckFlag": false,
      "AckDate": null,
      "IsTable": 0,
      "ShouldSendNotificationByEmail": 0
    },
    {
      "StrID": 14,
      "FieldID": 1,
      "ArrayID": 0,
      "Name": "Tipo alimentatore #1",
      "SevLevel": 0,
      "Value": "2",
      "Description": "p5V=0",
      "Visible": 1,
      "ReferenceID": null,
      "AckFlag": false,
      "AckDate": null,
      "IsTable": 0,
      "ShouldSendNotificationByEmail": 0
    },
    {
      "StrID": 14,
      "FieldID": 2,
      "ArrayID": 0,
      "Name": "Stato alimentatore #1",
      "SevLevel": 0,
      "Value": "1",
      "Description": "Acceso=0",
      "Visible": 1,
      "ReferenceID": null,
      "AckFlag": false,
      "AckDate": null,
      "IsTable": 0,
      "ShouldSendNotificationByEmail": 0
    },
    {
      "StrID": 14,
      "FieldID": 3,
      "ArrayID": 0,
      "Name": "Tensione in uscita dell'alimentatore #1 SELECT V o mV)",
      "SevLevel": 0,
      "Value": "510",
      "Description": "Valore ricevuto=0",
      "Visible": 1,
      "ReferenceID": null,
      "AckFlag": false,
      "AckDate": null,
      "IsTable": 0,
      "ShouldSendNotificationByEmail": 0
    },
    {
      "StrID": 14,
      "FieldID": 4,
      "ArrayID": 0,
      "Name": "Descrizione dell'alimentatore #1",
      "SevLevel": 0,
      "Value": "Panel PS",
      "Description": "Valore ricevuto=0",
      "Visible": 1,
      "ReferenceID": null,
      "AckFlag": false,
      "AckDate": null,
      "IsTable": 0,
      "ShouldSendNotificationByEmail": 0
    },
    {
      "StrID": 14,
      "FieldID": 5,
      "ArrayID": 0,
      "Name": "Severità complessiva dell'alimentatore #1",
      "SevLevel": 0,
      "Value": "0",
      "Description": "Nessun allarme=0",
      "Visible": 1,
      "ReferenceID": null,
      "AckFlag": false,
      "AckDate": null,
      "IsTable": 0,
      "ShouldSendNotificationByEmail": 0
    },
    {
      "StrID": 14,
      "FieldID": 6,
      "ArrayID": 0,
      "Name": "Tipo alimentatore #2",
      "SevLevel": 0,
      "Value": "4",
      "Description": "p24V=0",
      "Visible": 1,
      "ReferenceID": null,
      "AckFlag": false,
      "AckDate": null,
      "IsTable": 0,
      "ShouldSendNotificationByEmail": 0
    },
    {
      "StrID": 14,
      "FieldID": 7,
      "ArrayID": 0,
      "Name": "Stato alimentatore #2",
      "SevLevel": 0,
      "Value": "1",
      "Description": "Acceso=0",
      "Visible": 1,
      "ReferenceID": null,
      "AckFlag": false,
      "AckDate": null,
      "IsTable": 0,
      "ShouldSendNotificationByEmail": 0
    },
    {
      "StrID": 14,
      "FieldID": 8,
      "ArrayID": 0,
      "Name": "Tensione in uscita dell'alimentatore #2 SELECT V o mV)",
      "SevLevel": 0,
      "Value": "2395",
      "Description": "Valore ricevuto=0",
      "Visible": 1,
      "ReferenceID": null,
      "AckFlag": false,
      "AckDate": null,
      "IsTable": 0,
      "ShouldSendNotificationByEmail": 0
    },
    {
      "StrID": 14,
      "FieldID": 9,
      "ArrayID": 0,
      "Name": "Descrizione dell'alimentatore #2",
      "SevLevel": 0,
      "Value": "Inverter PS",
      "Description": "Valore ricevuto=0",
      "Visible": 1,
      "ReferenceID": null,
      "AckFlag": false,
      "AckDate": null,
      "IsTable": 0,
      "ShouldSendNotificationByEmail": 0
    },
    {
      "StrID": 14,
      "FieldID": 10,
      "ArrayID": 0,
      "Name": "Severità complessiva dell'alimentatore #2",
      "SevLevel": 0,
      "Value": "0",
      "Description": "Nessun allarme=0",
      "Visible": 1,
      "ReferenceID": null,
      "AckFlag": false,
      "AckDate": null,
      "IsTable": 0,
      "ShouldSendNotificationByEmail": 0
    }
  ]
}