{
  "DevID": "65028141402750978",
  "SevLevel": 255,
  "Description": "Dispositivo non raggiungibile",
  "Offline": 1,
  "AckFlag": false,
  "AckDate": null,
  "ShouldSendNotificationByEmail": 0,
  "streams": [],
  "stream_fields": []
}