{
  "DevID": "97679238701187074",
  "SevLevel": 0,
  "Description": "In servizio",
  "Offline": 0,
  "AckFlag": false,
  "AckDate": null,
  "ShouldSendNotificationByEmail": 0,
  "streams": [
    {
      "StrID": 1,
      "Name": "Informazioni standard",
      "Visible": 1,
      "Data": null,
      "DateTime": "2018-06-26T15:35:03.583Z",
      "SevLevel": 0,
      "Description": "Nome macchina ricevuto=-255;Descrizione ricevuta=-255;Up time ricevuto=0",
      "Processed": null
    },
    {
      "StrID": 2,
      "Name": "Informazioni sistema",
      "Visible": 1,
      "Data": null,
      "DateTime": "2018-06-26T15:35:06.317Z",
      "SevLevel": -255,
      "Description": "Valore ricevuto=-255;Valore ricevuto=-255;Valore ricevuto=-255;Valore ricevuto=-255;Valore ricevuto=-255;Valore ricevuto=-255;Valore ricevuto=-255;Valore ricevuto=-255;Valore ricevuto=-255",
      "Processed": null
    },
    {
      "StrID": 3,
      "Name": "Informazioni porte switch",
      "Visible": 1,
      "Data": null,
      "DateTime": "2018-06-26T15:35:08.190Z",
      "SevLevel": -255,
      "Description": "Valore ricevuto=-255;Valore ricevuto=-255;Ethernet=-255;1 Gbit/s=-255;Attiva=-255;Connessa=-255;Valore ricevuto=-255;Valore ricevuto=-255;Ethernet=-255;1 Gbit/s=-255;Attiva=-255;Connessa=-255;Valore ricevuto=-255;Valore ricevuto=-255;Ethernet=-255;1 Gbit/s=-255;Attiva=-255;Connessa=-255;Valore ricevuto=-255;Valore ricevuto=-255;Ethernet=-255;1 Gbit/s=-255;Attiva=-255;Connessa=-255;Valore ricevuto=-255;Valore ricevuto=-255;Ethernet=-255;1 Gbit/s=-255;Attiva=-255;Connessa=-255;Valore ricevuto=-255;Valore ricevuto=-255;Ethernet=-255;1 Gbit/s=-255;Attiva=-255;Connessa=-255;Valore ricevuto=-255;Valore ricevuto=-255;Ethernet=-255;1 Gbit/s=-255;Attiva=-255;Connessa=-255;Valore ricevuto=-255;Valore ricevuto=-255;Ethernet=-255;1 Gbit/s=-255;Attiva=-255;Connessa=-255;Valore ricevuto=-255;Valore ricevuto=-255;Ethernet=-255;1 Gbit/s=-255;Attiva=-255;Connessa=-255;Valore ricevuto=-255;Valore ricevuto=-255;Ethernet=-255;1 Gbit/s=-255;Attiva=-255;Connessa=-255;Valore ricevuto=-255;Valore ricevuto=-255;Ethernet=-255;1 Gbit/s=-255;Attiva=-255;Connessa=-255;Valore ricevuto=-255;Valore ricevuto=-255;Ethernet=-255;1 Gbit/s=-255;Attiva=-255;Non connessa=-255;Valore ricevuto=-255;Valore ricevuto=-255;Ethernet=-255;1 Gbit/s=-255;Attiva=-255;Connessa=-255;Valore ricevuto=-255;Valore ricevuto=-255;Ethernet=-255;1 Gbit/s=-255;Attiva=-255;Connessa=-255;Valore ricevuto=-255;Valore ricevuto=-255;Ethernet=-255;1 Gbit/s=-255;Attiva=-255;Connessa=-255;Valore ricevuto=-255;Valore ricevuto=-255;Ethernet=-255;1 Gbit/s=-255;Attiva=-255;Connessa=-255;Valore ricevuto=-255;Valore ricevuto=-255;Ethernet=-255;1 Gbit/s=-255;Attiva=-255;Non connessa=-255;Valore ricevuto=-255;Valore ricevuto=-255;Ethernet=-255;10 Mbit/s=-255;Attiva=-255;Non connessa=-255;Valore ricevuto=-255;Valore ricevuto=-255;Ethernet=-255;1 Gbit/s=-255;Attiva=-255;Non connessa=-255;Valore ricevuto=-255;Valore ricevuto=-255;Ethernet=-255;10 Mbit/s=-255;Attiva=-255;Non connessa=-255;Valore ricevuto=-255;Valore ricevuto=-255;Ethernet=-255;100 Mbit/s=-255;Attiva=-255;Non connessa=-255;Valore ricevuto=-255;Valore ricevuto=-255;Ethernet=-255;10 Mbit/s=-255;Attiva=-255;Non connessa=-255;Valore ricevuto=-255;Valore ricevuto=-255;Ethernet=-255;10 Mbit/s=-255;Attiva=-255;Non connessa=-255;Valore ricevuto=-255;Valore ricevuto=-255;Ethernet=-255;1 Gbit/s=-255;Attiva=-255;Connessa=-255;Valore ricevuto=-255;Valore ricevuto=-255;Altro=-255;Valore ricevuto=-255;Attiva=-255;Connessa=-255;Valore ricevuto=-255;Valore ricevuto=-255;Ethernet=-255;100 Mbit/s=-255;Attiva=-255;Connessa=-255;Valore ricevuto=-255",
      "Processed": null
    }
  ],
  "stream_fields": [
    {
      "StrID": 1,
      "FieldID": 0,
      "ArrayID": 0,
      "Name": "Nome dispositivo",
      "SevLevel": -255,
      "Value": "Sw3-P-Mi01-Blade1Sw3",
      "Description": "Nome macchina ricevuto=-255",
      "Visible": 1,
      "ReferenceID": null,
      "AckFlag": false,
      "AckDate": null,
      "IsTable": 0,
      "ShouldSendNotificationByEmail": 0
    },
    {
      "StrID": 1,
      "FieldID": 1,
      "ArrayID": 0,
      "Name": "Descrizione",
      "SevLevel": -255,
      "Value": "Cisco IOS Software, CBS30X0 Software SELECT CBS30X0-LANBASE-M UNION ALL Version 12.2SELECT 37)SE1, RELEASE SOFTWARE SELECT fc1)\r\nCopyright SELECT c) 1986-2007 by Cisco Systems, Inc.\r\nCompiled Thu 05-Jul-07 19:54 by antonino",
      "Description": "Descrizione ricevuta=-255",
      "Visible": 1,
      "ReferenceID": null,
      "AckFlag": false,
      "AckDate": null,
      "IsTable": 0,
      "ShouldSendNotificationByEmail": 0
    },
    {
      "StrID": 1,
      "FieldID": 2,
      "ArrayID": 0,
      "Name": "Up time",
      "SevLevel": 0,
      "Value": "313 giorni, 14:20:47.660",
      "Description": "Up time ricevuto=0",
      "Visible": 1,
      "ReferenceID": null,
      "AckFlag": false,
      "AckDate": null,
      "IsTable": 0,
      "ShouldSendNotificationByEmail": 0
    },
    {
      "StrID": 1,
      "FieldID": 3,
      "ArrayID": 0,
      "Name": "Locazione",
      "SevLevel": -255,
      "Value": "Lombardia",
      "Description": "Locazione ricevuta=-255",
      "Visible": 1,
      "ReferenceID": null,
      "AckFlag": false,
      "AckDate": null,
      "IsTable": 0,
      "ShouldSendNotificationByEmail": 0
    },
    {
      "StrID": 1,
      "FieldID": 4,
      "ArrayID": 0,
      "Name": "Codice identificativo periferica",
      "SevLevel": -255,
      "Value": ".1.3.6.1.4.1.9.1.748",
      "Description": "Valore ricevuto=-255",
      "Visible": 1,
      "ReferenceID": null,
      "AckFlag": false,
      "AckDate": null,
      "IsTable": 0,
      "ShouldSendNotificationByEmail": 0
    },
    {
      "StrID": 2,
      "FieldID": 0,
      "ArrayID": 0,
      "Name": "Versione ROM monitor",
      "SevLevel": -255,
      "Value": "\r\nBootstrap program is CBS30X0 boot loader\r\n",
      "Description": "Valore ricevuto=-255",
      "Visible": 1,
      "ReferenceID": null,
      "AckFlag": false,
      "AckDate": null,
      "IsTable": 0,
      "ShouldSendNotificationByEmail": 0
    },
    {
      "StrID": 2,
      "FieldID": 1,
      "ArrayID": 0,
      "Name": "Versione ROM software di sistema",
      "SevLevel": -255,
      "Value": "CBS30X0 Boot Loader SELECT CBS30X0-HBOOT-M) Version 12.2SELECT 25r)SEF3, RELEASE SOFTWARE SELECT fc1)\r\nCompiled Mon 12-Jun-06 14:31 by myl\r\n",
      "Description": "Valore ricevuto=-255",
      "Visible": 1,
      "ReferenceID": null,
      "AckFlag": false,
      "AckDate": null,
      "IsTable": 0,
      "ShouldSendNotificationByEmail": 0
    },
    {
      "StrID": 2,
      "FieldID": 2,
      "ArrayID": 0,
      "Name": "Indirizzo IP scheda di rete #1",
      "SevLevel": -255,
      "Value": "10.102.248.76",
      "Description": "Valore ricevuto=-255",
      "Visible": 1,
      "ReferenceID": null,
      "AckFlag": false,
      "AckDate": null,
      "IsTable": 0,
      "ShouldSendNotificationByEmail": 0
    },
    {
      "StrID": 2,
      "FieldID": 3,
      "ArrayID": 0,
      "Name": "Maschera di sottorete scheda di rete #1",
      "SevLevel": -255,
      "Value": "255.255.255.0",
      "Description": "Valore ricevuto=-255",
      "Visible": 1,
      "ReferenceID": null,
      "AckFlag": false,
      "AckDate": null,
      "IsTable": 0,
      "ShouldSendNotificationByEmail": 0
    },
    {
      "StrID": 2,
      "FieldID": 4,
      "ArrayID": 0,
      "Name": "Gateway scheda di rete #01",
      "SevLevel": -255,
      "Value": "10.102.248.61",
      "Description": "Valore ricevuto=-255",
      "Visible": 1,
      "ReferenceID": null,
      "AckFlag": false,
      "AckDate": null,
      "IsTable": 0,
      "ShouldSendNotificationByEmail": 0
    },
    {
      "StrID": 2,
      "FieldID": 5,
      "ArrayID": 0,
      "Name": "Gateway scheda di rete #02",
      "SevLevel": -255,
      "Value": "10.102.248.75",
      "Description": "Valore ricevuto=-255",
      "Visible": 1,
      "ReferenceID": null,
      "AckFlag": false,
      "AckDate": null,
      "IsTable": 0,
      "ShouldSendNotificationByEmail": 0
    },
    {
      "StrID": 2,
      "FieldID": 6,
      "ArrayID": 0,
      "Name": "Gateway scheda di rete #03",
      "SevLevel": -255,
      "Value": "10.102.248.76",
      "Description": "Valore ricevuto=-255",
      "Visible": 1,
      "ReferenceID": null,
      "AckFlag": false,
      "AckDate": null,
      "IsTable": 0,
      "ShouldSendNotificationByEmail": 0
    },
    {
      "StrID": 2,
      "FieldID": 7,
      "ArrayID": 0,
      "Name": "Gateway scheda di rete #04",
      "SevLevel": -255,
      "Value": "10.102.248.77",
      "Description": "Valore ricevuto=-255",
      "Visible": 1,
      "ReferenceID": null,
      "AckFlag": false,
      "AckDate": null,
      "IsTable": 0,
      "ShouldSendNotificationByEmail": 0
    },
    {
      "StrID": 2,
      "FieldID": 8,
      "ArrayID": 0,
      "Name": "Gateway scheda di rete #05",
      "SevLevel": -255,
      "Value": "10.102.248.201",
      "Description": "Valore ricevuto=-255",
      "Visible": 1,
      "ReferenceID": null,
      "AckFlag": false,
      "AckDate": null,
      "IsTable": 0,
      "ShouldSendNotificationByEmail": 0
    },
    {
      "StrID": 3,
      "FieldID": 0,
      "ArrayID": 0,
      "Name": "Numero interfacce di rete",
      "SevLevel": -255,
      "Value": "29",
      "Description": "Valore ricevuto=-255",
      "Visible": 1,
      "ReferenceID": null,
      "AckFlag": false,
      "AckDate": null,
      "IsTable": 0,
      "ShouldSendNotificationByEmail": 0
    },
    {
      "StrID": 3,
      "FieldID": 1,
      "ArrayID": 0,
      "Name": "Nome porta #01",
      "SevLevel": -255,
      "Value": "GigabitEthernet0/1",
      "Description": "Valore ricevuto=-255",
      "Visible": 1,
      "ReferenceID": null,
      "AckFlag": false,
      "AckDate": null,
      "IsTable": 0,
      "ShouldSendNotificationByEmail": 0
    },
    {
      "StrID": 3,
      "FieldID": 2,
      "ArrayID": 0,
      "Name": "Tipo porta #01",
      "SevLevel": -255,
      "Value": "6",
      "Description": "Ethernet=-255",
      "Visible": 1,
      "ReferenceID": null,
      "AckFlag": false,
      "AckDate": null,
      "IsTable": 0,
      "ShouldSendNotificationByEmail": 0
    },
    {
      "StrID": 3,
      "FieldID": 3,
      "ArrayID": 0,
      "Name": "Velocità porta #01",
      "SevLevel": -255,
      "Value": "1000000000",
      "Description": "1 Gbit/s=-255",
      "Visible": 1,
      "ReferenceID": null,
      "AckFlag": false,
      "AckDate": null,
      "IsTable": 0,
      "ShouldSendNotificationByEmail": 0
    },
    {
      "StrID": 3,
      "FieldID": 4,
      "ArrayID": 0,
      "Name": "Stato attivazione porta #01",
      "SevLevel": -255,
      "Value": "1",
      "Description": "Attiva=-255",
      "Visible": 1,
      "ReferenceID": null,
      "AckFlag": false,
      "AckDate": null,
      "IsTable": 0,
      "ShouldSendNotificationByEmail": 0
    },
    {
      "StrID": 3,
      "FieldID": 5,
      "ArrayID": 0,
      "Name": "Stato connessione porta #01",
      "SevLevel": -255,
      "Value": "1",
      "Description": "Connessa=-255",
      "Visible": 1,
      "ReferenceID": null,
      "AckFlag": false,
      "AckDate": null,
      "IsTable": 0,
      "ShouldSendNotificationByEmail": 0
    },
    {
      "StrID": 3,
      "FieldID": 6,
      "ArrayID": 0,
      "Name": "Ultima modifica porta #01",
      "SevLevel": -255,
      "Value": "372 giorni, 14:59:31.210",
      "Description": "Valore ricevuto=-255",
      "Visible": 1,
      "ReferenceID": null,
      "AckFlag": false,
      "AckDate": null,
      "IsTable": 0,
      "ShouldSendNotificationByEmail": 0
    },
    {
      "StrID": 3,
      "FieldID": 7,
      "ArrayID": 0,
      "Name": "Nome porta #02",
      "SevLevel": -255,
      "Value": "GigabitEthernet0/2",
      "Description": "Valore ricevuto=-255",
      "Visible": 1,
      "ReferenceID": null,
      "AckFlag": false,
      "AckDate": null,
      "IsTable": 0,
      "ShouldSendNotificationByEmail": 0
    },
    {
      "StrID": 3,
      "FieldID": 8,
      "ArrayID": 0,
      "Name": "Tipo porta #02",
      "SevLevel": -255,
      "Value": "6",
      "Description": "Ethernet=-255",
      "Visible": 1,
      "ReferenceID": null,
      "AckFlag": false,
      "AckDate": null,
      "IsTable": 0,
      "ShouldSendNotificationByEmail": 0
    },
    {
      "StrID": 3,
      "FieldID": 9,
      "ArrayID": 0,
      "Name": "Velocità porta #02",
      "SevLevel": -255,
      "Value": "1000000000",
      "Description": "1 Gbit/s=-255",
      "Visible": 1,
      "ReferenceID": null,
      "AckFlag": false,
      "AckDate": null,
      "IsTable": 0,
      "ShouldSendNotificationByEmail": 0
    },
    {
      "StrID": 3,
      "FieldID": 10,
      "ArrayID": 0,
      "Name": "Stato attivazione porta #02",
      "SevLevel": -255,
      "Value": "1",
      "Description": "Attiva=-255",
      "Visible": 1,
      "ReferenceID": null,
      "AckFlag": false,
      "AckDate": null,
      "IsTable": 0,
      "ShouldSendNotificationByEmail": 0
    },
    {
      "StrID": 3,
      "FieldID": 11,
      "ArrayID": 0,
      "Name": "Stato connessione porta #02",
      "SevLevel": -255,
      "Value": "1",
      "Description": "Connessa=-255",
      "Visible": 1,
      "ReferenceID": null,
      "AckFlag": false,
      "AckDate": null,
      "IsTable": 0,
      "ShouldSendNotificationByEmail": 0
    },
    {
      "StrID": 3,
      "FieldID": 12,
      "ArrayID": 0,
      "Name": "Ultima modifica porta #02",
      "SevLevel": -255,
      "Value": "35 giorni, 17:43:49.510",
      "Description": "Valore ricevuto=-255",
      "Visible": 1,
      "ReferenceID": null,
      "AckFlag": false,
      "AckDate": null,
      "IsTable": 0,
      "ShouldSendNotificationByEmail": 0
    },
    {
      "StrID": 3,
      "FieldID": 13,
      "ArrayID": 0,
      "Name": "Nome porta #03",
      "SevLevel": -255,
      "Value": "GigabitEthernet0/3",
      "Description": "Valore ricevuto=-255",
      "Visible": 1,
      "ReferenceID": null,
      "AckFlag": false,
      "AckDate": null,
      "IsTable": 0,
      "ShouldSendNotificationByEmail": 0
    },
    {
      "StrID": 3,
      "FieldID": 14,
      "ArrayID": 0,
      "Name": "Tipo porta #03",
      "SevLevel": -255,
      "Value": "6",
      "Description": "Ethernet=-255",
      "Visible": 1,
      "ReferenceID": null,
      "AckFlag": false,
      "AckDate": null,
      "IsTable": 0,
      "ShouldSendNotificationByEmail": 0
    },
    {
      "StrID": 3,
      "FieldID": 15,
      "ArrayID": 0,
      "Name": "Velocità porta #03",
      "SevLevel": -255,
      "Value": "1000000000",
      "Description": "1 Gbit/s=-255",
      "Visible": 1,
      "ReferenceID": null,
      "AckFlag": false,
      "AckDate": null,
      "IsTable": 0,
      "ShouldSendNotificationByEmail": 0
    },
    {
      "StrID": 3,
      "FieldID": 16,
      "ArrayID": 0,
      "Name": "Stato attivazione porta #03",
      "SevLevel": -255,
      "Value": "1",
      "Description": "Attiva=-255",
      "Visible": 1,
      "ReferenceID": null,
      "AckFlag": false,
      "AckDate": null,
      "IsTable": 0,
      "ShouldSendNotificationByEmail": 0
    },
    {
      "StrID": 3,
      "FieldID": 17,
      "ArrayID": 0,
      "Name": "Stato connessione porta #03",
      "SevLevel": -255,
      "Value": "1",
      "Description": "Connessa=-255",
      "Visible": 1,
      "ReferenceID": null,
      "AckFlag": false,
      "AckDate": null,
      "IsTable": 0,
      "ShouldSendNotificationByEmail": 0
    },
    {
      "StrID": 3,
      "FieldID": 18,
      "ArrayID": 0,
      "Name": "Ultima modifica porta #03",
      "SevLevel": -255,
      "Value": "48 giorni, 19:52:12.000",
      "Description": "Valore ricevuto=-255",
      "Visible": 1,
      "ReferenceID": null,
      "AckFlag": false,
      "AckDate": null,
      "IsTable": 0,
      "ShouldSendNotificationByEmail": 0
    },
    {
      "StrID": 3,
      "FieldID": 19,
      "ArrayID": 0,
      "Name": "Nome porta #04",
      "SevLevel": -255,
      "Value": "GigabitEthernet0/4",
      "Description": "Valore ricevuto=-255",
      "Visible": 1,
      "ReferenceID": null,
      "AckFlag": false,
      "AckDate": null,
      "IsTable": 0,
      "ShouldSendNotificationByEmail": 0
    },
    {
      "StrID": 3,
      "FieldID": 20,
      "ArrayID": 0,
      "Name": "Tipo porta #04",
      "SevLevel": -255,
      "Value": "6",
      "Description": "Ethernet=-255",
      "Visible": 1,
      "ReferenceID": null,
      "AckFlag": false,
      "AckDate": null,
      "IsTable": 0,
      "ShouldSendNotificationByEmail": 0
    },
    {
      "StrID": 3,
      "FieldID": 21,
      "ArrayID": 0,
      "Name": "Velocità porta #04",
      "SevLevel": -255,
      "Value": "1000000000",
      "Description": "1 Gbit/s=-255",
      "Visible": 1,
      "ReferenceID": null,
      "AckFlag": false,
      "AckDate": null,
      "IsTable": 0,
      "ShouldSendNotificationByEmail": 0
    },
    {
      "StrID": 3,
      "FieldID": 22,
      "ArrayID": 0,
      "Name": "Stato attivazione porta #04",
      "SevLevel": -255,
      "Value": "1",
      "Description": "Attiva=-255",
      "Visible": 1,
      "ReferenceID": null,
      "AckFlag": false,
      "AckDate": null,
      "IsTable": 0,
      "ShouldSendNotificationByEmail": 0
    },
    {
      "StrID": 3,
      "FieldID": 23,
      "ArrayID": 0,
      "Name": "Stato connessione porta #04",
      "SevLevel": -255,
      "Value": "1",
      "Description": "Connessa=-255",
      "Visible": 1,
      "ReferenceID": null,
      "AckFlag": false,
      "AckDate": null,
      "IsTable": 0,
      "ShouldSendNotificationByEmail": 0
    },
    {
      "StrID": 3,
      "FieldID": 24,
      "ArrayID": 0,
      "Name": "Ultima modifica porta #04",
      "SevLevel": -255,
      "Value": "137 giorni, 14:32:16.690",
      "Description": "Valore ricevuto=-255",
      "Visible": 1,
      "ReferenceID": null,
      "AckFlag": false,
      "AckDate": null,
      "IsTable": 0,
      "ShouldSendNotificationByEmail": 0
    },
    {
      "StrID": 3,
      "FieldID": 25,
      "ArrayID": 0,
      "Name": "Nome porta #05",
      "SevLevel": -255,
      "Value": "GigabitEthernet0/5",
      "Description": "Valore ricevuto=-255",
      "Visible": 1,
      "ReferenceID": null,
      "AckFlag": false,
      "AckDate": null,
      "IsTable": 0,
      "ShouldSendNotificationByEmail": 0
    },
    {
      "StrID": 3,
      "FieldID": 26,
      "ArrayID": 0,
      "Name": "Tipo porta #05",
      "SevLevel": -255,
      "Value": "6",
      "Description": "Ethernet=-255",
      "Visible": 1,
      "ReferenceID": null,
      "AckFlag": false,
      "AckDate": null,
      "IsTable": 0,
      "ShouldSendNotificationByEmail": 0
    },
    {
      "StrID": 3,
      "FieldID": 27,
      "ArrayID": 0,
      "Name": "Velocità porta #05",
      "SevLevel": -255,
      "Value": "1000000000",
      "Description": "1 Gbit/s=-255",
      "Visible": 1,
      "ReferenceID": null,
      "AckFlag": false,
      "AckDate": null,
      "IsTable": 0,
      "ShouldSendNotificationByEmail": 0
    },
    {
      "StrID": 3,
      "FieldID": 28,
      "ArrayID": 0,
      "Name": "Stato attivazione porta #05",
      "SevLevel": -255,
      "Value": "1",
      "Description": "Attiva=-255",
      "Visible": 1,
      "ReferenceID": null,
      "AckFlag": false,
      "AckDate": null,
      "IsTable": 0,
      "ShouldSendNotificationByEmail": 0
    },
    {
      "StrID": 3,
      "FieldID": 29,
      "ArrayID": 0,
      "Name": "Stato connessione porta #05",
      "SevLevel": -255,
      "Value": "1",
      "Description": "Connessa=-255",
      "Visible": 1,
      "ReferenceID": null,
      "AckFlag": false,
      "AckDate": null,
      "IsTable": 0,
      "ShouldSendNotificationByEmail": 0
    },
    {
      "StrID": 3,
      "FieldID": 30,
      "ArrayID": 0,
      "Name": "Ultima modifica porta #05",
      "SevLevel": -255,
      "Value": "6 giorni, 06:04:03.820",
      "Description": "Valore ricevuto=-255",
      "Visible": 1,
      "ReferenceID": null,
      "AckFlag": false,
      "AckDate": null,
      "IsTable": 0,
      "ShouldSendNotificationByEmail": 0
    },
    {
      "StrID": 3,
      "FieldID": 31,
      "ArrayID": 0,
      "Name": "Nome porta #06",
      "SevLevel": -255,
      "Value": "GigabitEthernet0/6",
      "Description": "Valore ricevuto=-255",
      "Visible": 1,
      "ReferenceID": null,
      "AckFlag": false,
      "AckDate": null,
      "IsTable": 0,
      "ShouldSendNotificationByEmail": 0
    },
    {
      "StrID": 3,
      "FieldID": 32,
      "ArrayID": 0,
      "Name": "Tipo porta #06",
      "SevLevel": -255,
      "Value": "6",
      "Description": "Ethernet=-255",
      "Visible": 1,
      "ReferenceID": null,
      "AckFlag": false,
      "AckDate": null,
      "IsTable": 0,
      "ShouldSendNotificationByEmail": 0
    },
    {
      "StrID": 3,
      "FieldID": 33,
      "ArrayID": 0,
      "Name": "Velocità porta #06",
      "SevLevel": -255,
      "Value": "1000000000",
      "Description": "1 Gbit/s=-255",
      "Visible": 1,
      "ReferenceID": null,
      "AckFlag": false,
      "AckDate": null,
      "IsTable": 0,
      "ShouldSendNotificationByEmail": 0
    },
    {
      "StrID": 3,
      "FieldID": 34,
      "ArrayID": 0,
      "Name": "Stato attivazione porta #06",
      "SevLevel": -255,
      "Value": "1",
      "Description": "Attiva=-255",
      "Visible": 1,
      "ReferenceID": null,
      "AckFlag": false,
      "AckDate": null,
      "IsTable": 0,
      "ShouldSendNotificationByEmail": 0
    },
    {
      "StrID": 3,
      "FieldID": 35,
      "ArrayID": 0,
      "Name": "Stato connessione porta #06",
      "SevLevel": -255,
      "Value": "1",
      "Description": "Connessa=-255",
      "Visible": 1,
      "ReferenceID": null,
      "AckFlag": false,
      "AckDate": null,
      "IsTable": 0,
      "ShouldSendNotificationByEmail": 0
    },
    {
      "StrID": 3,
      "FieldID": 36,
      "ArrayID": 0,
      "Name": "Ultima modifica porta #06",
      "SevLevel": -255,
      "Value": "6 giorni, 06:02:33.850",
      "Description": "Valore ricevuto=-255",
      "Visible": 1,
      "ReferenceID": null,
      "AckFlag": false,
      "AckDate": null,
      "IsTable": 0,
      "ShouldSendNotificationByEmail": 0
    },
    {
      "StrID": 3,
      "FieldID": 37,
      "ArrayID": 0,
      "Name": "Nome porta #07",
      "SevLevel": -255,
      "Value": "GigabitEthernet0/7",
      "Description": "Valore ricevuto=-255",
      "Visible": 1,
      "ReferenceID": null,
      "AckFlag": false,
      "AckDate": null,
      "IsTable": 0,
      "ShouldSendNotificationByEmail": 0
    },
    {
      "StrID": 3,
      "FieldID": 38,
      "ArrayID": 0,
      "Name": "Tipo porta #07",
      "SevLevel": -255,
      "Value": "6",
      "Description": "Ethernet=-255",
      "Visible": 1,
      "ReferenceID": null,
      "AckFlag": false,
      "AckDate": null,
      "IsTable": 0,
      "ShouldSendNotificationByEmail": 0
    },
    {
      "StrID": 3,
      "FieldID": 39,
      "ArrayID": 0,
      "Name": "Velocità porta #07",
      "SevLevel": -255,
      "Value": "1000000000",
      "Description": "1 Gbit/s=-255",
      "Visible": 1,
      "ReferenceID": null,
      "AckFlag": false,
      "AckDate": null,
      "IsTable": 0,
      "ShouldSendNotificationByEmail": 0
    },
    {
      "StrID": 3,
      "FieldID": 40,
      "ArrayID": 0,
      "Name": "Stato attivazione porta #07",
      "SevLevel": -255,
      "Value": "1",
      "Description": "Attiva=-255",
      "Visible": 1,
      "ReferenceID": null,
      "AckFlag": false,
      "AckDate": null,
      "IsTable": 0,
      "ShouldSendNotificationByEmail": 0
    },
    {
      "StrID": 3,
      "FieldID": 41,
      "ArrayID": 0,
      "Name": "Stato connessione porta #07",
      "SevLevel": -255,
      "Value": "1",
      "Description": "Connessa=-255",
      "Visible": 1,
      "ReferenceID": null,
      "AckFlag": false,
      "AckDate": null,
      "IsTable": 0,
      "ShouldSendNotificationByEmail": 0
    },
    {
      "StrID": 3,
      "FieldID": 42,
      "ArrayID": 0,
      "Name": "Ultima modifica porta #07",
      "SevLevel": -255,
      "Value": "386 giorni, 14:37:31.020",
      "Description": "Valore ricevuto=-255",
      "Visible": 1,
      "ReferenceID": null,
      "AckFlag": false,
      "AckDate": null,
      "IsTable": 0,
      "ShouldSendNotificationByEmail": 0
    },
    {
      "StrID": 3,
      "FieldID": 43,
      "ArrayID": 0,
      "Name": "Nome porta #08",
      "SevLevel": -255,
      "Value": "GigabitEthernet0/8",
      "Description": "Valore ricevuto=-255",
      "Visible": 1,
      "ReferenceID": null,
      "AckFlag": false,
      "AckDate": null,
      "IsTable": 0,
      "ShouldSendNotificationByEmail": 0
    },
    {
      "StrID": 3,
      "FieldID": 44,
      "ArrayID": 0,
      "Name": "Tipo porta #08",
      "SevLevel": -255,
      "Value": "6",
      "Description": "Ethernet=-255",
      "Visible": 1,
      "ReferenceID": null,
      "AckFlag": false,
      "AckDate": null,
      "IsTable": 0,
      "ShouldSendNotificationByEmail": 0
    },
    {
      "StrID": 3,
      "FieldID": 45,
      "ArrayID": 0,
      "Name": "Velocità porta #08",
      "SevLevel": -255,
      "Value": "1000000000",
      "Description": "1 Gbit/s=-255",
      "Visible": 1,
      "ReferenceID": null,
      "AckFlag": false,
      "AckDate": null,
      "IsTable": 0,
      "ShouldSendNotificationByEmail": 0
    },
    {
      "StrID": 3,
      "FieldID": 46,
      "ArrayID": 0,
      "Name": "Stato attivazione porta #08",
      "SevLevel": -255,
      "Value": "1",
      "Description": "Attiva=-255",
      "Visible": 1,
      "ReferenceID": null,
      "AckFlag": false,
      "AckDate": null,
      "IsTable": 0,
      "ShouldSendNotificationByEmail": 0
    },
    {
      "StrID": 3,
      "FieldID": 47,
      "ArrayID": 0,
      "Name": "Stato connessione porta #08",
      "SevLevel": -255,
      "Value": "1",
      "Description": "Connessa=-255",
      "Visible": 1,
      "ReferenceID": null,
      "AckFlag": false,
      "AckDate": null,
      "IsTable": 0,
      "ShouldSendNotificationByEmail": 0
    },
    {
      "StrID": 3,
      "FieldID": 48,
      "ArrayID": 0,
      "Name": "Ultima modifica porta #08",
      "SevLevel": -255,
      "Value": "40 giorni, 23:59:53.160",
      "Description": "Valore ricevuto=-255",
      "Visible": 1,
      "ReferenceID": null,
      "AckFlag": false,
      "AckDate": null,
      "IsTable": 0,
      "ShouldSendNotificationByEmail": 0
    },
    {
      "StrID": 3,
      "FieldID": 49,
      "ArrayID": 0,
      "Name": "Nome porta #09",
      "SevLevel": -255,
      "Value": "GigabitEthernet0/9",
      "Description": "Valore ricevuto=-255",
      "Visible": 1,
      "ReferenceID": null,
      "AckFlag": false,
      "AckDate": null,
      "IsTable": 0,
      "ShouldSendNotificationByEmail": 0
    },
    {
      "StrID": 3,
      "FieldID": 50,
      "ArrayID": 0,
      "Name": "Tipo porta #09",
      "SevLevel": -255,
      "Value": "6",
      "Description": "Ethernet=-255",
      "Visible": 1,
      "ReferenceID": null,
      "AckFlag": false,
      "AckDate": null,
      "IsTable": 0,
      "ShouldSendNotificationByEmail": 0
    },
    {
      "StrID": 3,
      "FieldID": 51,
      "ArrayID": 0,
      "Name": "Velocità porta #09",
      "SevLevel": -255,
      "Value": "1000000000",
      "Description": "1 Gbit/s=-255",
      "Visible": 1,
      "ReferenceID": null,
      "AckFlag": false,
      "AckDate": null,
      "IsTable": 0,
      "ShouldSendNotificationByEmail": 0
    },
    {
      "StrID": 3,
      "FieldID": 52,
      "ArrayID": 0,
      "Name": "Stato attivazione porta #09",
      "SevLevel": -255,
      "Value": "1",
      "Description": "Attiva=-255",
      "Visible": 1,
      "ReferenceID": null,
      "AckFlag": false,
      "AckDate": null,
      "IsTable": 0,
      "ShouldSendNotificationByEmail": 0
    },
    {
      "StrID": 3,
      "FieldID": 53,
      "ArrayID": 0,
      "Name": "Stato connessione porta #09",
      "SevLevel": -255,
      "Value": "1",
      "Description": "Connessa=-255",
      "Visible": 1,
      "ReferenceID": null,
      "AckFlag": false,
      "AckDate": null,
      "IsTable": 0,
      "ShouldSendNotificationByEmail": 0
    },
    {
      "StrID": 3,
      "FieldID": 54,
      "ArrayID": 0,
      "Name": "Ultima modifica porta #09",
      "SevLevel": -255,
      "Value": "350 giorni, 23:31:16.570",
      "Description": "Valore ricevuto=-255",
      "Visible": 1,
      "ReferenceID": null,
      "AckFlag": false,
      "AckDate": null,
      "IsTable": 0,
      "ShouldSendNotificationByEmail": 0
    },
    {
      "StrID": 3,
      "FieldID": 55,
      "ArrayID": 0,
      "Name": "Nome porta #10",
      "SevLevel": -255,
      "Value": "GigabitEthernet0/10",
      "Description": "Valore ricevuto=-255",
      "Visible": 1,
      "ReferenceID": null,
      "AckFlag": false,
      "AckDate": null,
      "IsTable": 0,
      "ShouldSendNotificationByEmail": 0
    },
    {
      "StrID": 3,
      "FieldID": 56,
      "ArrayID": 0,
      "Name": "Tipo porta #10",
      "SevLevel": -255,
      "Value": "6",
      "Description": "Ethernet=-255",
      "Visible": 1,
      "ReferenceID": null,
      "AckFlag": false,
      "AckDate": null,
      "IsTable": 0,
      "ShouldSendNotificationByEmail": 0
    },
    {
      "StrID": 3,
      "FieldID": 57,
      "ArrayID": 0,
      "Name": "Velocità porta #10",
      "SevLevel": -255,
      "Value": "1000000000",
      "Description": "1 Gbit/s=-255",
      "Visible": 1,
      "ReferenceID": null,
      "AckFlag": false,
      "AckDate": null,
      "IsTable": 0,
      "ShouldSendNotificationByEmail": 0
    },
    {
      "StrID": 3,
      "FieldID": 58,
      "ArrayID": 0,
      "Name": "Stato attivazione porta #10",
      "SevLevel": -255,
      "Value": "1",
      "Description": "Attiva=-255",
      "Visible": 1,
      "ReferenceID": null,
      "AckFlag": false,
      "AckDate": null,
      "IsTable": 0,
      "ShouldSendNotificationByEmail": 0
    },
    {
      "StrID": 3,
      "FieldID": 59,
      "ArrayID": 0,
      "Name": "Stato connessione porta #10",
      "SevLevel": -255,
      "Value": "1",
      "Description": "Connessa=-255",
      "Visible": 1,
      "ReferenceID": null,
      "AckFlag": false,
      "AckDate": null,
      "IsTable": 0,
      "ShouldSendNotificationByEmail": 0
    },
    {
      "StrID": 3,
      "FieldID": 60,
      "ArrayID": 0,
      "Name": "Ultima modifica porta #10",
      "SevLevel": -255,
      "Value": "27 giorni, 02:24:47.800",
      "Description": "Valore ricevuto=-255",
      "Visible": 1,
      "ReferenceID": null,
      "AckFlag": false,
      "AckDate": null,
      "IsTable": 0,
      "ShouldSendNotificationByEmail": 0
    },
    {
      "StrID": 3,
      "FieldID": 61,
      "ArrayID": 0,
      "Name": "Nome porta #11",
      "SevLevel": -255,
      "Value": "GigabitEthernet0/11",
      "Description": "Valore ricevuto=-255",
      "Visible": 1,
      "ReferenceID": null,
      "AckFlag": false,
      "AckDate": null,
      "IsTable": 0,
      "ShouldSendNotificationByEmail": 0
    },
    {
      "StrID": 3,
      "FieldID": 62,
      "ArrayID": 0,
      "Name": "Tipo porta #11",
      "SevLevel": -255,
      "Value": "6",
      "Description": "Ethernet=-255",
      "Visible": 1,
      "ReferenceID": null,
      "AckFlag": false,
      "AckDate": null,
      "IsTable": 0,
      "ShouldSendNotificationByEmail": 0
    },
    {
      "StrID": 3,
      "FieldID": 63,
      "ArrayID": 0,
      "Name": "Velocità porta #11",
      "SevLevel": -255,
      "Value": "1000000000",
      "Description": "1 Gbit/s=-255",
      "Visible": 1,
      "ReferenceID": null,
      "AckFlag": false,
      "AckDate": null,
      "IsTable": 0,
      "ShouldSendNotificationByEmail": 0
    },
    {
      "StrID": 3,
      "FieldID": 64,
      "ArrayID": 0,
      "Name": "Stato attivazione porta #11",
      "SevLevel": -255,
      "Value": "1",
      "Description": "Attiva=-255",
      "Visible": 1,
      "ReferenceID": null,
      "AckFlag": false,
      "AckDate": null,
      "IsTable": 0,
      "ShouldSendNotificationByEmail": 0
    },
    {
      "StrID": 3,
      "FieldID": 65,
      "ArrayID": 0,
      "Name": "Stato connessione porta #11",
      "SevLevel": -255,
      "Value": "1",
      "Description": "Connessa=-255",
      "Visible": 1,
      "ReferenceID": null,
      "AckFlag": false,
      "AckDate": null,
      "IsTable": 0,
      "ShouldSendNotificationByEmail": 0
    },
    {
      "StrID": 3,
      "FieldID": 66,
      "ArrayID": 0,
      "Name": "Ultima modifica porta #11",
      "SevLevel": -255,
      "Value": "137 giorni, 18:21:02.430",
      "Description": "Valore ricevuto=-255",
      "Visible": 1,
      "ReferenceID": null,
      "AckFlag": false,
      "AckDate": null,
      "IsTable": 0,
      "ShouldSendNotificationByEmail": 0
    },
    {
      "StrID": 3,
      "FieldID": 67,
      "ArrayID": 0,
      "Name": "Nome porta #12",
      "SevLevel": -255,
      "Value": "GigabitEthernet0/12",
      "Description": "Valore ricevuto=-255",
      "Visible": 1,
      "ReferenceID": null,
      "AckFlag": false,
      "AckDate": null,
      "IsTable": 0,
      "ShouldSendNotificationByEmail": 0
    },
    {
      "StrID": 3,
      "FieldID": 68,
      "ArrayID": 0,
      "Name": "Tipo porta #12",
      "SevLevel": -255,
      "Value": "6",
      "Description": "Ethernet=-255",
      "Visible": 1,
      "ReferenceID": null,
      "AckFlag": false,
      "AckDate": null,
      "IsTable": 0,
      "ShouldSendNotificationByEmail": 0
    },
    {
      "StrID": 3,
      "FieldID": 69,
      "ArrayID": 0,
      "Name": "Velocità porta #12",
      "SevLevel": -255,
      "Value": "1000000000",
      "Description": "1 Gbit/s=-255",
      "Visible": 1,
      "ReferenceID": null,
      "AckFlag": false,
      "AckDate": null,
      "IsTable": 0,
      "ShouldSendNotificationByEmail": 0
    },
    {
      "StrID": 3,
      "FieldID": 70,
      "ArrayID": 0,
      "Name": "Stato attivazione porta #12",
      "SevLevel": -255,
      "Value": "1",
      "Description": "Attiva=-255",
      "Visible": 1,
      "ReferenceID": null,
      "AckFlag": false,
      "AckDate": null,
      "IsTable": 0,
      "ShouldSendNotificationByEmail": 0
    },
    {
      "StrID": 3,
      "FieldID": 71,
      "ArrayID": 0,
      "Name": "Stato connessione porta #12",
      "SevLevel": -255,
      "Value": "2",
      "Description": "Non connessa=-255",
      "Visible": 1,
      "ReferenceID": null,
      "AckFlag": false,
      "AckDate": null,
      "IsTable": 0,
      "ShouldSendNotificationByEmail": 0
    },
    {
      "StrID": 3,
      "FieldID": 72,
      "ArrayID": 0,
      "Name": "Ultima modifica porta #12",
      "SevLevel": -255,
      "Value": "394 giorni, 15:10:10.000",
      "Description": "Valore ricevuto=-255",
      "Visible": 1,
      "ReferenceID": null,
      "AckFlag": false,
      "AckDate": null,
      "IsTable": 0,
      "ShouldSendNotificationByEmail": 0
    },
    {
      "StrID": 3,
      "FieldID": 73,
      "ArrayID": 0,
      "Name": "Nome porta #13",
      "SevLevel": -255,
      "Value": "GigabitEthernet0/13",
      "Description": "Valore ricevuto=-255",
      "Visible": 1,
      "ReferenceID": null,
      "AckFlag": false,
      "AckDate": null,
      "IsTable": 0,
      "ShouldSendNotificationByEmail": 0
    },
    {
      "StrID": 3,
      "FieldID": 74,
      "ArrayID": 0,
      "Name": "Tipo porta #13",
      "SevLevel": -255,
      "Value": "6",
      "Description": "Ethernet=-255",
      "Visible": 1,
      "ReferenceID": null,
      "AckFlag": false,
      "AckDate": null,
      "IsTable": 0,
      "ShouldSendNotificationByEmail": 0
    },
    {
      "StrID": 3,
      "FieldID": 75,
      "ArrayID": 0,
      "Name": "Velocità porta #13",
      "SevLevel": -255,
      "Value": "1000000000",
      "Description": "1 Gbit/s=-255",
      "Visible": 1,
      "ReferenceID": null,
      "AckFlag": false,
      "AckDate": null,
      "IsTable": 0,
      "ShouldSendNotificationByEmail": 0
    },
    {
      "StrID": 3,
      "FieldID": 76,
      "ArrayID": 0,
      "Name": "Stato attivazione porta #13",
      "SevLevel": -255,
      "Value": "1",
      "Description": "Attiva=-255",
      "Visible": 1,
      "ReferenceID": null,
      "AckFlag": false,
      "AckDate": null,
      "IsTable": 0,
      "ShouldSendNotificationByEmail": 0
    },
    {
      "StrID": 3,
      "FieldID": 77,
      "ArrayID": 0,
      "Name": "Stato connessione porta #13",
      "SevLevel": -255,
      "Value": "1",
      "Description": "Connessa=-255",
      "Visible": 1,
      "ReferenceID": null,
      "AckFlag": false,
      "AckDate": null,
      "IsTable": 0,
      "ShouldSendNotificationByEmail": 0
    },
    {
      "StrID": 3,
      "FieldID": 78,
      "ArrayID": 0,
      "Name": "Ultima modifica porta #13",
      "SevLevel": -255,
      "Value": "100 giorni, 01:19:25.500",
      "Description": "Valore ricevuto=-255",
      "Visible": 1,
      "ReferenceID": null,
      "AckFlag": false,
      "AckDate": null,
      "IsTable": 0,
      "ShouldSendNotificationByEmail": 0
    },
    {
      "StrID": 3,
      "FieldID": 79,
      "ArrayID": 0,
      "Name": "Nome porta #14",
      "SevLevel": -255,
      "Value": "GigabitEthernet0/14",
      "Description": "Valore ricevuto=-255",
      "Visible": 1,
      "ReferenceID": null,
      "AckFlag": false,
      "AckDate": null,
      "IsTable": 0,
      "ShouldSendNotificationByEmail": 0
    },
    {
      "StrID": 3,
      "FieldID": 80,
      "ArrayID": 0,
      "Name": "Tipo porta #14",
      "SevLevel": -255,
      "Value": "6",
      "Description": "Ethernet=-255",
      "Visible": 1,
      "ReferenceID": null,
      "AckFlag": false,
      "AckDate": null,
      "IsTable": 0,
      "ShouldSendNotificationByEmail": 0
    },
    {
      "StrID": 3,
      "FieldID": 81,
      "ArrayID": 0,
      "Name": "Velocità porta #14",
      "SevLevel": -255,
      "Value": "1000000000",
      "Description": "1 Gbit/s=-255",
      "Visible": 1,
      "ReferenceID": null,
      "AckFlag": false,
      "AckDate": null,
      "IsTable": 0,
      "ShouldSendNotificationByEmail": 0
    },
    {
      "StrID": 3,
      "FieldID": 82,
      "ArrayID": 0,
      "Name": "Stato attivazione porta #14",
      "SevLevel": -255,
      "Value": "1",
      "Description": "Attiva=-255",
      "Visible": 1,
      "ReferenceID": null,
      "AckFlag": false,
      "AckDate": null,
      "IsTable": 0,
      "ShouldSendNotificationByEmail": 0
    },
    {
      "StrID": 3,
      "FieldID": 83,
      "ArrayID": 0,
      "Name": "Stato connessione porta #14",
      "SevLevel": -255,
      "Value": "1",
      "Description": "Connessa=-255",
      "Visible": 1,
      "ReferenceID": null,
      "AckFlag": false,
      "AckDate": null,
      "IsTable": 0,
      "ShouldSendNotificationByEmail": 0
    },
    {
      "StrID": 3,
      "FieldID": 84,
      "ArrayID": 0,
      "Name": "Ultima modifica porta #14",
      "SevLevel": -255,
      "Value": "134 giorni, 12:01:41.650",
      "Description": "Valore ricevuto=-255",
      "Visible": 1,
      "ReferenceID": null,
      "AckFlag": false,
      "AckDate": null,
      "IsTable": 0,
      "ShouldSendNotificationByEmail": 0
    },
    {
      "StrID": 3,
      "FieldID": 85,
      "ArrayID": 0,
      "Name": "Nome porta #15",
      "SevLevel": -255,
      "Value": "GigabitEthernet0/15",
      "Description": "Valore ricevuto=-255",
      "Visible": 1,
      "ReferenceID": null,
      "AckFlag": false,
      "AckDate": null,
      "IsTable": 0,
      "ShouldSendNotificationByEmail": 0
    },
    {
      "StrID": 3,
      "FieldID": 86,
      "ArrayID": 0,
      "Name": "Tipo porta #15",
      "SevLevel": -255,
      "Value": "6",
      "Description": "Ethernet=-255",
      "Visible": 1,
      "ReferenceID": null,
      "AckFlag": false,
      "AckDate": null,
      "IsTable": 0,
      "ShouldSendNotificationByEmail": 0
    },
    {
      "StrID": 3,
      "FieldID": 87,
      "ArrayID": 0,
      "Name": "Velocità porta #15",
      "SevLevel": -255,
      "Value": "1000000000",
      "Description": "1 Gbit/s=-255",
      "Visible": 1,
      "ReferenceID": null,
      "AckFlag": false,
      "AckDate": null,
      "IsTable": 0,
      "ShouldSendNotificationByEmail": 0
    },
    {
      "StrID": 3,
      "FieldID": 88,
      "ArrayID": 0,
      "Name": "Stato attivazione porta #15",
      "SevLevel": -255,
      "Value": "1",
      "Description": "Attiva=-255",
      "Visible": 1,
      "ReferenceID": null,
      "AckFlag": false,
      "AckDate": null,
      "IsTable": 0,
      "ShouldSendNotificationByEmail": 0
    },
    {
      "StrID": 3,
      "FieldID": 89,
      "ArrayID": 0,
      "Name": "Stato connessione porta #15",
      "SevLevel": -255,
      "Value": "1",
      "Description": "Connessa=-255",
      "Visible": 1,
      "ReferenceID": null,
      "AckFlag": false,
      "AckDate": null,
      "IsTable": 0,
      "ShouldSendNotificationByEmail": 0
    },
    {
      "StrID": 3,
      "FieldID": 90,
      "ArrayID": 0,
      "Name": "Ultima modifica porta #15",
      "SevLevel": -255,
      "Value": "137 giorni, 14:46:29.700",
      "Description": "Valore ricevuto=-255",
      "Visible": 1,
      "ReferenceID": null,
      "AckFlag": false,
      "AckDate": null,
      "IsTable": 0,
      "ShouldSendNotificationByEmail": 0
    },
    {
      "StrID": 3,
      "FieldID": 91,
      "ArrayID": 0,
      "Name": "Nome porta #16",
      "SevLevel": -255,
      "Value": "GigabitEthernet0/16",
      "Description": "Valore ricevuto=-255",
      "Visible": 1,
      "ReferenceID": null,
      "AckFlag": false,
      "AckDate": null,
      "IsTable": 0,
      "ShouldSendNotificationByEmail": 0
    },
    {
      "StrID": 3,
      "FieldID": 92,
      "ArrayID": 0,
      "Name": "Tipo porta #16",
      "SevLevel": -255,
      "Value": "6",
      "Description": "Ethernet=-255",
      "Visible": 1,
      "ReferenceID": null,
      "AckFlag": false,
      "AckDate": null,
      "IsTable": 0,
      "ShouldSendNotificationByEmail": 0
    },
    {
      "StrID": 3,
      "FieldID": 93,
      "ArrayID": 0,
      "Name": "Velocità porta #16",
      "SevLevel": -255,
      "Value": "1000000000",
      "Description": "1 Gbit/s=-255",
      "Visible": 1,
      "ReferenceID": null,
      "AckFlag": false,
      "AckDate": null,
      "IsTable": 0,
      "ShouldSendNotificationByEmail": 0
    },
    {
      "StrID": 3,
      "FieldID": 94,
      "ArrayID": 0,
      "Name": "Stato attivazione porta #16",
      "SevLevel": -255,
      "Value": "1",
      "Description": "Attiva=-255",
      "Visible": 1,
      "ReferenceID": null,
      "AckFlag": false,
      "AckDate": null,
      "IsTable": 0,
      "ShouldSendNotificationByEmail": 0
    },
    {
      "StrID": 3,
      "FieldID": 95,
      "ArrayID": 0,
      "Name": "Stato connessione porta #16",
      "SevLevel": -255,
      "Value": "1",
      "Description": "Connessa=-255",
      "Visible": 1,
      "ReferenceID": null,
      "AckFlag": false,
      "AckDate": null,
      "IsTable": 0,
      "ShouldSendNotificationByEmail": 0
    },
    {
      "StrID": 3,
      "FieldID": 96,
      "ArrayID": 0,
      "Name": "Ultima modifica porta #16",
      "SevLevel": -255,
      "Value": "6 giorni, 23:46:57.130",
      "Description": "Valore ricevuto=-255",
      "Visible": 1,
      "ReferenceID": null,
      "AckFlag": false,
      "AckDate": null,
      "IsTable": 0,
      "ShouldSendNotificationByEmail": 0
    },
    {
      "StrID": 3,
      "FieldID": 97,
      "ArrayID": 0,
      "Name": "Nome porta #17",
      "SevLevel": -255,
      "Value": "GigabitEthernet0/17",
      "Description": "Valore ricevuto=-255",
      "Visible": 1,
      "ReferenceID": null,
      "AckFlag": false,
      "AckDate": null,
      "IsTable": 0,
      "ShouldSendNotificationByEmail": 0
    },
    {
      "StrID": 3,
      "FieldID": 98,
      "ArrayID": 0,
      "Name": "Tipo porta #17",
      "SevLevel": -255,
      "Value": "6",
      "Description": "Ethernet=-255",
      "Visible": 1,
      "ReferenceID": null,
      "AckFlag": false,
      "AckDate": null,
      "IsTable": 0,
      "ShouldSendNotificationByEmail": 0
    },
    {
      "StrID": 3,
      "FieldID": 99,
      "ArrayID": 0,
      "Name": "Velocità porta #17",
      "SevLevel": -255,
      "Value": "1000000000",
      "Description": "1 Gbit/s=-255",
      "Visible": 1,
      "ReferenceID": null,
      "AckFlag": false,
      "AckDate": null,
      "IsTable": 0,
      "ShouldSendNotificationByEmail": 0
    },
    {
      "StrID": 3,
      "FieldID": 100,
      "ArrayID": 0,
      "Name": "Stato attivazione porta #17",
      "SevLevel": -255,
      "Value": "1",
      "Description": "Attiva=-255",
      "Visible": 1,
      "ReferenceID": null,
      "AckFlag": false,
      "AckDate": null,
      "IsTable": 0,
      "ShouldSendNotificationByEmail": 0
    },
    {
      "StrID": 3,
      "FieldID": 101,
      "ArrayID": 0,
      "Name": "Stato connessione porta #17",
      "SevLevel": -255,
      "Value": "2",
      "Description": "Non connessa=-255",
      "Visible": 1,
      "ReferenceID": null,
      "AckFlag": false,
      "AckDate": null,
      "IsTable": 0,
      "ShouldSendNotificationByEmail": 0
    },
    {
      "StrID": 3,
      "FieldID": 102,
      "ArrayID": 0,
      "Name": "Ultima modifica porta #17",
      "SevLevel": -255,
      "Value": "8 giorni, 06:18:46.860",
      "Description": "Valore ricevuto=-255",
      "Visible": 1,
      "ReferenceID": null,
      "AckFlag": false,
      "AckDate": null,
      "IsTable": 0,
      "ShouldSendNotificationByEmail": 0
    },
    {
      "StrID": 3,
      "FieldID": 103,
      "ArrayID": 0,
      "Name": "Nome porta #18",
      "SevLevel": -255,
      "Value": "GigabitEthernet0/18",
      "Description": "Valore ricevuto=-255",
      "Visible": 1,
      "ReferenceID": null,
      "AckFlag": false,
      "AckDate": null,
      "IsTable": 0,
      "ShouldSendNotificationByEmail": 0
    },
    {
      "StrID": 3,
      "FieldID": 104,
      "ArrayID": 0,
      "Name": "Tipo porta #18",
      "SevLevel": -255,
      "Value": "6",
      "Description": "Ethernet=-255",
      "Visible": 1,
      "ReferenceID": null,
      "AckFlag": false,
      "AckDate": null,
      "IsTable": 0,
      "ShouldSendNotificationByEmail": 0
    },
    {
      "StrID": 3,
      "FieldID": 105,
      "ArrayID": 0,
      "Name": "Velocità porta #18",
      "SevLevel": -255,
      "Value": "10000000",
      "Description": "10 Mbit/s=-255",
      "Visible": 1,
      "ReferenceID": null,
      "AckFlag": false,
      "AckDate": null,
      "IsTable": 0,
      "ShouldSendNotificationByEmail": 0
    },
    {
      "StrID": 3,
      "FieldID": 106,
      "ArrayID": 0,
      "Name": "Stato attivazione porta #18",
      "SevLevel": -255,
      "Value": "1",
      "Description": "Attiva=-255",
      "Visible": 1,
      "ReferenceID": null,
      "AckFlag": false,
      "AckDate": null,
      "IsTable": 0,
      "ShouldSendNotificationByEmail": 0
    },
    {
      "StrID": 3,
      "FieldID": 107,
      "ArrayID": 0,
      "Name": "Stato connessione porta #18",
      "SevLevel": -255,
      "Value": "2",
      "Description": "Non connessa=-255",
      "Visible": 1,
      "ReferenceID": null,
      "AckFlag": false,
      "AckDate": null,
      "IsTable": 0,
      "ShouldSendNotificationByEmail": 0
    },
    {
      "StrID": 3,
      "FieldID": 108,
      "ArrayID": 0,
      "Name": "Ultima modifica porta #18",
      "SevLevel": -255,
      "Value": "0 giorni, 00:01:11.270",
      "Description": "Valore ricevuto=-255",
      "Visible": 1,
      "ReferenceID": null,
      "AckFlag": false,
      "AckDate": null,
      "IsTable": 0,
      "ShouldSendNotificationByEmail": 0
    },
    {
      "StrID": 3,
      "FieldID": 109,
      "ArrayID": 0,
      "Name": "Nome porta #19",
      "SevLevel": -255,
      "Value": "GigabitEthernet0/19",
      "Description": "Valore ricevuto=-255",
      "Visible": 1,
      "ReferenceID": null,
      "AckFlag": false,
      "AckDate": null,
      "IsTable": 0,
      "ShouldSendNotificationByEmail": 0
    },
    {
      "StrID": 3,
      "FieldID": 110,
      "ArrayID": 0,
      "Name": "Tipo porta #19",
      "SevLevel": -255,
      "Value": "6",
      "Description": "Ethernet=-255",
      "Visible": 1,
      "ReferenceID": null,
      "AckFlag": false,
      "AckDate": null,
      "IsTable": 0,
      "ShouldSendNotificationByEmail": 0
    },
    {
      "StrID": 3,
      "FieldID": 111,
      "ArrayID": 0,
      "Name": "Velocità porta #19",
      "SevLevel": -255,
      "Value": "1000000000",
      "Description": "1 Gbit/s=-255",
      "Visible": 1,
      "ReferenceID": null,
      "AckFlag": false,
      "AckDate": null,
      "IsTable": 0,
      "ShouldSendNotificationByEmail": 0
    },
    {
      "StrID": 3,
      "FieldID": 112,
      "ArrayID": 0,
      "Name": "Stato attivazione porta #19",
      "SevLevel": -255,
      "Value": "1",
      "Description": "Attiva=-255",
      "Visible": 1,
      "ReferenceID": null,
      "AckFlag": false,
      "AckDate": null,
      "IsTable": 0,
      "ShouldSendNotificationByEmail": 0
    },
    {
      "StrID": 3,
      "FieldID": 113,
      "ArrayID": 0,
      "Name": "Stato connessione porta #19",
      "SevLevel": -255,
      "Value": "2",
      "Description": "Non connessa=-255",
      "Visible": 1,
      "ReferenceID": null,
      "AckFlag": false,
      "AckDate": null,
      "IsTable": 0,
      "ShouldSendNotificationByEmail": 0
    },
    {
      "StrID": 3,
      "FieldID": 114,
      "ArrayID": 0,
      "Name": "Ultima modifica porta #19",
      "SevLevel": -255,
      "Value": "37 giorni, 00:57:49.700",
      "Description": "Valore ricevuto=-255",
      "Visible": 1,
      "ReferenceID": null,
      "AckFlag": false,
      "AckDate": null,
      "IsTable": 0,
      "ShouldSendNotificationByEmail": 0
    },
    {
      "StrID": 3,
      "FieldID": 115,
      "ArrayID": 0,
      "Name": "Nome porta #20",
      "SevLevel": -255,
      "Value": "GigabitEthernet0/20",
      "Description": "Valore ricevuto=-255",
      "Visible": 1,
      "ReferenceID": null,
      "AckFlag": false,
      "AckDate": null,
      "IsTable": 0,
      "ShouldSendNotificationByEmail": 0
    },
    {
      "StrID": 3,
      "FieldID": 116,
      "ArrayID": 0,
      "Name": "Tipo porta #20",
      "SevLevel": -255,
      "Value": "6",
      "Description": "Ethernet=-255",
      "Visible": 1,
      "ReferenceID": null,
      "AckFlag": false,
      "AckDate": null,
      "IsTable": 0,
      "ShouldSendNotificationByEmail": 0
    },
    {
      "StrID": 3,
      "FieldID": 117,
      "ArrayID": 0,
      "Name": "Velocità porta #20",
      "SevLevel": -255,
      "Value": "10000000",
      "Description": "10 Mbit/s=-255",
      "Visible": 1,
      "ReferenceID": null,
      "AckFlag": false,
      "AckDate": null,
      "IsTable": 0,
      "ShouldSendNotificationByEmail": 0
    },
    {
      "StrID": 3,
      "FieldID": 118,
      "ArrayID": 0,
      "Name": "Stato attivazione porta #20",
      "SevLevel": -255,
      "Value": "1",
      "Description": "Attiva=-255",
      "Visible": 1,
      "ReferenceID": null,
      "AckFlag": false,
      "AckDate": null,
      "IsTable": 0,
      "ShouldSendNotificationByEmail": 0
    },
    {
      "StrID": 3,
      "FieldID": 119,
      "ArrayID": 0,
      "Name": "Stato connessione porta #20",
      "SevLevel": -255,
      "Value": "2",
      "Description": "Non connessa=-255",
      "Visible": 1,
      "ReferenceID": null,
      "AckFlag": false,
      "AckDate": null,
      "IsTable": 0,
      "ShouldSendNotificationByEmail": 0
    },
    {
      "StrID": 3,
      "FieldID": 120,
      "ArrayID": 0,
      "Name": "Ultima modifica porta #20",
      "SevLevel": -255,
      "Value": "0 giorni, 00:01:11.270",
      "Description": "Valore ricevuto=-255",
      "Visible": 1,
      "ReferenceID": null,
      "AckFlag": false,
      "AckDate": null,
      "IsTable": 0,
      "ShouldSendNotificationByEmail": 0
    },
    {
      "StrID": 3,
      "FieldID": 121,
      "ArrayID": 0,
      "Name": "Nome porta #21",
      "SevLevel": -255,
      "Value": "GigabitEthernet0/21",
      "Description": "Valore ricevuto=-255",
      "Visible": 1,
      "ReferenceID": null,
      "AckFlag": false,
      "AckDate": null,
      "IsTable": 0,
      "ShouldSendNotificationByEmail": 0
    },
    {
      "StrID": 3,
      "FieldID": 122,
      "ArrayID": 0,
      "Name": "Tipo porta #21",
      "SevLevel": -255,
      "Value": "6",
      "Description": "Ethernet=-255",
      "Visible": 1,
      "ReferenceID": null,
      "AckFlag": false,
      "AckDate": null,
      "IsTable": 0,
      "ShouldSendNotificationByEmail": 0
    },
    {
      "StrID": 3,
      "FieldID": 123,
      "ArrayID": 0,
      "Name": "Velocità porta #21",
      "SevLevel": -255,
      "Value": "100000000",
      "Description": "100 Mbit/s=-255",
      "Visible": 1,
      "ReferenceID": null,
      "AckFlag": false,
      "AckDate": null,
      "IsTable": 0,
      "ShouldSendNotificationByEmail": 0
    },
    {
      "StrID": 3,
      "FieldID": 124,
      "ArrayID": 0,
      "Name": "Stato attivazione porta #21",
      "SevLevel": -255,
      "Value": "1",
      "Description": "Attiva=-255",
      "Visible": 1,
      "ReferenceID": null,
      "AckFlag": false,
      "AckDate": null,
      "IsTable": 0,
      "ShouldSendNotificationByEmail": 0
    },
    {
      "StrID": 3,
      "FieldID": 125,
      "ArrayID": 0,
      "Name": "Stato connessione porta #21",
      "SevLevel": -255,
      "Value": "2",
      "Description": "Non connessa=-255",
      "Visible": 1,
      "ReferenceID": null,
      "AckFlag": false,
      "AckDate": null,
      "IsTable": 0,
      "ShouldSendNotificationByEmail": 0
    },
    {
      "StrID": 3,
      "FieldID": 126,
      "ArrayID": 0,
      "Name": "Ultima modifica porta #21",
      "SevLevel": -255,
      "Value": "8 giorni, 06:18:05.750",
      "Description": "Valore ricevuto=-255",
      "Visible": 1,
      "ReferenceID": null,
      "AckFlag": false,
      "AckDate": null,
      "IsTable": 0,
      "ShouldSendNotificationByEmail": 0
    },
    {
      "StrID": 3,
      "FieldID": 127,
      "ArrayID": 0,
      "Name": "Nome porta #22",
      "SevLevel": -255,
      "Value": "GigabitEthernet0/22",
      "Description": "Valore ricevuto=-255",
      "Visible": 1,
      "ReferenceID": null,
      "AckFlag": false,
      "AckDate": null,
      "IsTable": 0,
      "ShouldSendNotificationByEmail": 0
    },
    {
      "StrID": 3,
      "FieldID": 128,
      "ArrayID": 0,
      "Name": "Tipo porta #22",
      "SevLevel": -255,
      "Value": "6",
      "Description": "Ethernet=-255",
      "Visible": 1,
      "ReferenceID": null,
      "AckFlag": false,
      "AckDate": null,
      "IsTable": 0,
      "ShouldSendNotificationByEmail": 0
    },
    {
      "StrID": 3,
      "FieldID": 129,
      "ArrayID": 0,
      "Name": "Velocità porta #22",
      "SevLevel": -255,
      "Value": "10000000",
      "Description": "10 Mbit/s=-255",
      "Visible": 1,
      "ReferenceID": null,
      "AckFlag": false,
      "AckDate": null,
      "IsTable": 0,
      "ShouldSendNotificationByEmail": 0
    },
    {
      "StrID": 3,
      "FieldID": 130,
      "ArrayID": 0,
      "Name": "Stato attivazione porta #22",
      "SevLevel": -255,
      "Value": "1",
      "Description": "Attiva=-255",
      "Visible": 1,
      "ReferenceID": null,
      "AckFlag": false,
      "AckDate": null,
      "IsTable": 0,
      "ShouldSendNotificationByEmail": 0
    },
    {
      "StrID": 3,
      "FieldID": 131,
      "ArrayID": 0,
      "Name": "Stato connessione porta #22",
      "SevLevel": -255,
      "Value": "2",
      "Description": "Non connessa=-255",
      "Visible": 1,
      "ReferenceID": null,
      "AckFlag": false,
      "AckDate": null,
      "IsTable": 0,
      "ShouldSendNotificationByEmail": 0
    },
    {
      "StrID": 3,
      "FieldID": 132,
      "ArrayID": 0,
      "Name": "Ultima modifica porta #22",
      "SevLevel": -255,
      "Value": "0 giorni, 00:01:11.270",
      "Description": "Valore ricevuto=-255",
      "Visible": 1,
      "ReferenceID": null,
      "AckFlag": false,
      "AckDate": null,
      "IsTable": 0,
      "ShouldSendNotificationByEmail": 0
    },
    {
      "StrID": 3,
      "FieldID": 133,
      "ArrayID": 0,
      "Name": "Nome porta #23",
      "SevLevel": -255,
      "Value": "GigabitEthernet0/23",
      "Description": "Valore ricevuto=-255",
      "Visible": 1,
      "ReferenceID": null,
      "AckFlag": false,
      "AckDate": null,
      "IsTable": 0,
      "ShouldSendNotificationByEmail": 0
    },
    {
      "StrID": 3,
      "FieldID": 134,
      "ArrayID": 0,
      "Name": "Tipo porta #23",
      "SevLevel": -255,
      "Value": "6",
      "Description": "Ethernet=-255",
      "Visible": 1,
      "ReferenceID": null,
      "AckFlag": false,
      "AckDate": null,
      "IsTable": 0,
      "ShouldSendNotificationByEmail": 0
    },
    {
      "StrID": 3,
      "FieldID": 135,
      "ArrayID": 0,
      "Name": "Velocità porta #23",
      "SevLevel": -255,
      "Value": "10000000",
      "Description": "10 Mbit/s=-255",
      "Visible": 1,
      "ReferenceID": null,
      "AckFlag": false,
      "AckDate": null,
      "IsTable": 0,
      "ShouldSendNotificationByEmail": 0
    },
    {
      "StrID": 3,
      "FieldID": 136,
      "ArrayID": 0,
      "Name": "Stato attivazione porta #23",
      "SevLevel": -255,
      "Value": "1",
      "Description": "Attiva=-255",
      "Visible": 1,
      "ReferenceID": null,
      "AckFlag": false,
      "AckDate": null,
      "IsTable": 0,
      "ShouldSendNotificationByEmail": 0
    },
    {
      "StrID": 3,
      "FieldID": 137,
      "ArrayID": 0,
      "Name": "Stato connessione porta #23",
      "SevLevel": -255,
      "Value": "2",
      "Description": "Non connessa=-255",
      "Visible": 1,
      "ReferenceID": null,
      "AckFlag": false,
      "AckDate": null,
      "IsTable": 0,
      "ShouldSendNotificationByEmail": 0
    },
    {
      "StrID": 3,
      "FieldID": 138,
      "ArrayID": 0,
      "Name": "Ultima modifica porta #23",
      "SevLevel": -255,
      "Value": "0 giorni, 00:01:11.270",
      "Description": "Valore ricevuto=-255",
      "Visible": 1,
      "ReferenceID": null,
      "AckFlag": false,
      "AckDate": null,
      "IsTable": 0,
      "ShouldSendNotificationByEmail": 0
    },
    {
      "StrID": 3,
      "FieldID": 139,
      "ArrayID": 0,
      "Name": "Nome porta #24",
      "SevLevel": -255,
      "Value": "GigabitEthernet0/24",
      "Description": "Valore ricevuto=-255",
      "Visible": 1,
      "ReferenceID": null,
      "AckFlag": false,
      "AckDate": null,
      "IsTable": 0,
      "ShouldSendNotificationByEmail": 0
    },
    {
      "StrID": 3,
      "FieldID": 140,
      "ArrayID": 0,
      "Name": "Tipo porta #24",
      "SevLevel": -255,
      "Value": "6",
      "Description": "Ethernet=-255",
      "Visible": 1,
      "ReferenceID": null,
      "AckFlag": false,
      "AckDate": null,
      "IsTable": 0,
      "ShouldSendNotificationByEmail": 0
    },
    {
      "StrID": 3,
      "FieldID": 141,
      "ArrayID": 0,
      "Name": "Velocità porta #24",
      "SevLevel": -255,
      "Value": "1000000000",
      "Description": "1 Gbit/s=-255",
      "Visible": 1,
      "ReferenceID": null,
      "AckFlag": false,
      "AckDate": null,
      "IsTable": 0,
      "ShouldSendNotificationByEmail": 0
    },
    {
      "StrID": 3,
      "FieldID": 142,
      "ArrayID": 0,
      "Name": "Stato attivazione porta #24",
      "SevLevel": -255,
      "Value": "1",
      "Description": "Attiva=-255",
      "Visible": 1,
      "ReferenceID": null,
      "AckFlag": false,
      "AckDate": null,
      "IsTable": 0,
      "ShouldSendNotificationByEmail": 0
    },
    {
      "StrID": 3,
      "FieldID": 143,
      "ArrayID": 0,
      "Name": "Stato connessione porta #24",
      "SevLevel": -255,
      "Value": "1",
      "Description": "Connessa=-255",
      "Visible": 1,
      "ReferenceID": null,
      "AckFlag": false,
      "AckDate": null,
      "IsTable": 0,
      "ShouldSendNotificationByEmail": 0
    },
    {
      "StrID": 3,
      "FieldID": 144,
      "ArrayID": 0,
      "Name": "Ultima modifica porta #24",
      "SevLevel": -255,
      "Value": "104 giorni, 01:18:21.780",
      "Description": "Valore ricevuto=-255",
      "Visible": 1,
      "ReferenceID": null,
      "AckFlag": false,
      "AckDate": null,
      "IsTable": 0,
      "ShouldSendNotificationByEmail": 0
    },
    {
      "StrID": 3,
      "FieldID": 145,
      "ArrayID": 0,
      "Name": "Nome porta aggiuntiva #01",
      "SevLevel": -255,
      "Value": "Null0",
      "Description": "Valore ricevuto=-255",
      "Visible": 1,
      "ReferenceID": null,
      "AckFlag": false,
      "AckDate": null,
      "IsTable": 0,
      "ShouldSendNotificationByEmail": 0
    },
    {
      "StrID": 3,
      "FieldID": 146,
      "ArrayID": 0,
      "Name": "Tipo porta aggiuntiva #01",
      "SevLevel": -255,
      "Value": "1",
      "Description": "Altro=-255",
      "Visible": 1,
      "ReferenceID": null,
      "AckFlag": false,
      "AckDate": null,
      "IsTable": 0,
      "ShouldSendNotificationByEmail": 0
    },
    {
      "StrID": 3,
      "FieldID": 147,
      "ArrayID": 0,
      "Name": "Velocità porta aggiuntiva #01",
      "SevLevel": -255,
      "Value": "4294967295",
      "Description": "Valore ricevuto=-255",
      "Visible": 1,
      "ReferenceID": null,
      "AckFlag": false,
      "AckDate": null,
      "IsTable": 0,
      "ShouldSendNotificationByEmail": 0
    },
    {
      "StrID": 3,
      "FieldID": 148,
      "ArrayID": 0,
      "Name": "Stato attivazione porta aggiuntiva #01",
      "SevLevel": -255,
      "Value": "1",
      "Description": "Attiva=-255",
      "Visible": 1,
      "ReferenceID": null,
      "AckFlag": false,
      "AckDate": null,
      "IsTable": 0,
      "ShouldSendNotificationByEmail": 0
    },
    {
      "StrID": 3,
      "FieldID": 149,
      "ArrayID": 0,
      "Name": "Stato connessione porta aggiuntiva #01",
      "SevLevel": -255,
      "Value": "1",
      "Description": "Connessa=-255",
      "Visible": 1,
      "ReferenceID": null,
      "AckFlag": false,
      "AckDate": null,
      "IsTable": 0,
      "ShouldSendNotificationByEmail": 0
    },
    {
      "StrID": 3,
      "FieldID": 150,
      "ArrayID": 0,
      "Name": "Ultima modifica porta aggiuntiva #01",
      "SevLevel": -255,
      "Value": "0 giorni, 00:00:00.000",
      "Description": "Valore ricevuto=-255",
      "Visible": 1,
      "ReferenceID": null,
      "AckFlag": false,
      "AckDate": null,
      "IsTable": 0,
      "ShouldSendNotificationByEmail": 0
    },
    {
      "StrID": 3,
      "FieldID": 151,
      "ArrayID": 0,
      "Name": "Nome porta aggiuntiva #02",
      "SevLevel": -255,
      "Value": "FastEthernet0",
      "Description": "Valore ricevuto=-255",
      "Visible": 1,
      "ReferenceID": null,
      "AckFlag": false,
      "AckDate": null,
      "IsTable": 0,
      "ShouldSendNotificationByEmail": 0
    },
    {
      "StrID": 3,
      "FieldID": 152,
      "ArrayID": 0,
      "Name": "Tipo porta aggiuntiva #02",
      "SevLevel": -255,
      "Value": "6",
      "Description": "Ethernet=-255",
      "Visible": 1,
      "ReferenceID": null,
      "AckFlag": false,
      "AckDate": null,
      "IsTable": 0,
      "ShouldSendNotificationByEmail": 0
    },
    {
      "StrID": 3,
      "FieldID": 153,
      "ArrayID": 0,
      "Name": "Velocità porta aggiuntiva #02",
      "SevLevel": -255,
      "Value": "100000000",
      "Description": "100 Mbit/s=-255",
      "Visible": 1,
      "ReferenceID": null,
      "AckFlag": false,
      "AckDate": null,
      "IsTable": 0,
      "ShouldSendNotificationByEmail": 0
    },
    {
      "StrID": 3,
      "FieldID": 154,
      "ArrayID": 0,
      "Name": "Stato attivazione porta aggiuntiva #02",
      "SevLevel": -255,
      "Value": "1",
      "Description": "Attiva=-255",
      "Visible": 1,
      "ReferenceID": null,
      "AckFlag": false,
      "AckDate": null,
      "IsTable": 0,
      "ShouldSendNotificationByEmail": 0
    },
    {
      "StrID": 3,
      "FieldID": 155,
      "ArrayID": 0,
      "Name": "Stato connessione porta aggiuntiva #02",
      "SevLevel": -255,
      "Value": "1",
      "Description": "Connessa=-255",
      "Visible": 1,
      "ReferenceID": null,
      "AckFlag": false,
      "AckDate": null,
      "IsTable": 0,
      "ShouldSendNotificationByEmail": 0
    },
    {
      "StrID": 3,
      "FieldID": 156,
      "ArrayID": 0,
      "Name": "Ultima modifica porta aggiuntiva #02",
      "SevLevel": -255,
      "Value": "133 giorni, 00:00:27.870",
      "Description": "Valore ricevuto=-255",
      "Visible": 1,
      "ReferenceID": null,
      "AckFlag": false,
      "AckDate": null,
      "IsTable": 0,
      "ShouldSendNotificationByEmail": 0
    }
  ]
}