{
  "DevID": "98805138608029698",
  "SevLevel": 1,
  "Description": "Dati diagnostici limitati alla sola sezione MIB-II",
  "Offline": 0,
  "AckFlag": false,
  "AckDate": null,
  "ShouldSendNotificationByEmail": 0,
  "streams": [
    {
      "StrID": 1,
      "Name": "Informazioni standard",
      "Visible": 1,
      "Data": null,
      "DateTime": "2018-06-26T15:35:09.890Z",
      "SevLevel": 0,
      "Description": "Descrizione ricevuta=-255;Up Time ricevuto=0;Valore ricevuto=-255",
      "Processed": null
    }
  ],
  "stream_fields": [
    {
      "StrID": 1,
      "FieldID": 0,
      "ArrayID": 0,
      "Name": "Nome macchina",
      "SevLevel": 255,
      "Value": "n/d",
      "Description": "Valore non ricevuto",
      "Visible": 1,
      "ReferenceID": null,
      "AckFlag": false,
      "AckDate": null,
      "IsTable": 0,
      "ShouldSendNotificationByEmail": 0
    },
    {
      "StrID": 1,
      "FieldID": 1,
      "ArrayID": 0,
      "Name": "Descrizione sistema",
      "SevLevel": -255,
      "Value": "E1 Intelligent Converter",
      "Description": "Descrizione ricevuta=-255",
      "Visible": 1,
      "ReferenceID": null,
      "AckFlag": false,
      "AckDate": null,
      "IsTable": 0,
      "ShouldSendNotificationByEmail": 0
    },
    {
      "StrID": 1,
      "FieldID": 2,
      "ArrayID": 0,
      "Name": "Up time",
      "SevLevel": 0,
      "Value": "1 giorno, 17:11:32.440",
      "Description": "Up Time ricevuto=0",
      "Visible": 1,
      "ReferenceID": null,
      "AckFlag": false,
      "AckDate": null,
      "IsTable": 0,
      "ShouldSendNotificationByEmail": 0
    },
    {
      "StrID": 1,
      "FieldID": 3,
      "ArrayID": 0,
      "Name": "Locazione",
      "SevLevel": 255,
      "Value": "n/d",
      "Description": "Valore non ricevuto",
      "Visible": 1,
      "ReferenceID": null,
      "AckFlag": false,
      "AckDate": null,
      "IsTable": 0,
      "ShouldSendNotificationByEmail": 0
    },
    {
      "StrID": 1,
      "FieldID": 4,
      "ArrayID": 0,
      "Name": "Codice identificativo periferica",
      "SevLevel": -255,
      "Value": ".1.3.6.1.6.3.1.1.5",
      "Description": "Valore ricevuto=-255",
      "Visible": 1,
      "ReferenceID": null,
      "AckFlag": false,
      "AckDate": null,
      "IsTable": 0,
      "ShouldSendNotificationByEmail": 0
    }
  ]
}