{
  "device_status": [],
  "streams": [],
  "stream_fields": [],
  "msgInfo": {
    "mac": "685b35ad29e7",
    "SrvId": 87359649,
    "externalIP": "192.170.5.59",
    "msgTotal": 15,
    "msgIndex": 13,
    "msgType": "UpdateStatus"
  }
}