[
  {
    "target": "GRAFO1",
    "data": [
      {
        "target": "GRAFO1",
        "id": "SRV1",
        "type": "SERVER",
        "icon": "http://image.jpg",
        "connections": [
          "FRW1",
          "ROUT1",
          "SWITCH1",
          "DSKTP1",
          "DSKTP2",
          "WORKST2"
        ],
        "events": {
          "click": {
            "action": "OPEN",
            "id": "DUMPWINDOW1"
          }
        }
      },
      {
        "target": "GRAFO1",
        "id": "FRW1",
        "type": "FIREWALL",
        "icon": "http://image.jpg",
        "connections": [
          "SRV1"
        ],
        "events": {
          "click": {
            "action": "OPEN",
            "id": "DUMPWINDOW1"
          }
        }
      }
    ]
  }
]