{
  "target": "GRAFO1",
  "id": "DSKTP2",
  "type": "DESKTOP",
  "icon": "http://image.jpg",
  "connections": [
    "SRV1"
  ],
  "events": {
    "click": 
    {
      "action": "OPEN",
      "id": "DUMPWINDOW1"
    }
  }
}